Annie.	5	4
AnnoJe.	6	4
Annodal.	7	4
Annuskia.	8	4
Alyne.	5	4
Therath.	7	8
Trika.	5	8
Tatola.	6	8
Tetoya.	6	8
Tateka.	6	8
Aenama.	6	6
Adra.	4	6
Anthedetta.	10	6
Andree.	6	6
Adite.	5	6
Alida.	5	7
Adralit.	7	7
Annie.	5	7
Argina.	6	7
Anngine.	7	7
Mirgia.	6	6
Malina.	6	6
Marii.	5	6
Mattit.	6	6
MadniWa.	7	6
Sana.	4	7
Stelle.	6	7
Sinz.	4	7
Sall.	4	7
Shana.	5	7
Rokona.	6	7
Ropette.	7	7
Roggel.	6	7
Roonah.	6	7
Rosiahe.	7	7
AnnoMa.	6	6
Anbine.	6	6
Annna.	5	6
Alyna.	5	6
Angeta.	6	6
Winia.	5	6
Willa.	5	6
Winda.	5	6
Winotha.	7	6
Withaya.	7	6
Giolila.	7	6
Guetoy.	6	6
Gulyn.	5	6
Giann.	5	6
Geneth.	6	6
Alica.	5	4
Astine.	6	4
Angelyh.	7	4
Albare.	6	4
Annie.	5	4
Maleine.	7	7
Madia.	5	7
Merine.	6	7
Maela.	5	7
Malen.	5	7
Wide.	4	5
Winell.	6	5
Wennite.	7	5
Winoth.	6	5
Wilin.	5	5
Berrize.	7	4
Brudina.	7	4
Beteta.	6	4
Badita.	6	4
Bobbetea.	8	4
Gabelia.	7	4
Givyphe.	7	4
G.	1	4
Gama.	4	4
Gien.	4	4
Ropeonni.	8	4
Rade.	4	4
Roxie.	5	4
Rodyina.	7	4
Rogella.	7	4
Rogna.	5	5
Rorry.	5	5
Roxyna.	6	5
Rega.	4	5
Rovina.	6	5
Jolia.	5	8
Jelinde.	7	8
Jassah.	6	8
Jammie.	6	8
Jammylea.	8	8
Wamita.	6	5
Walinah.	7	5
Winta.	5	5
Winta.	5	5
Wineth.	6	5
Berelle.	7	5
Belsie.	6	5
Bettota.	7	5
Bette.	5	5
Betnida.	7	5
Dacba.	5	9
Deunne.	6	9
Deli.	4	9
Danna.	5	9
Deanne.	6	9
Witha.	5	5
WiniVa.	6	5
Wintine.	7	5
Weline.	6	5
Wiline.	6	5
Luzina.	6	7
Litha.	5	7
Lanna.	5	7
Latyn.	5	7
Lanne.	5	7
Marice.	6	8
Marine.	6	8
Malga.	5	8
Marie.	5	8
Maralina.	8	8
Raina.	5	3
Rebbeka.	7	3
Rodina.	6	3
Ronie.	5	3
Roxewn.	6	3
Nithe.	5	5
Nandi.	5	5
Natael.	6	5
Nania.	5	5
Nithe.	5	5
Argetta.	7	5
Annetin.	7	5
Atny.	4	5
Angel.	5	5
Annetta.	7	5
Climaidella.	11	7
Cattellal.	9	7
Charlyntie.	10	7
Chrissettecely.	14	7
Chrysta.	7	7
Kettsa.	6	6
Kinda.	5	6
Katta.	5	6
Ketta.	5	6
Krie.	4	6
Lattna.	6	6
Lizabil.	7	6
Lathe.	5	6
Lentina.	7	6
Loudree.	7	6
Tetoney.	7	4
Therolea.	8	4
Todie.	5	4
Todyd.	5	4
Themmille.	9	4
Roticha.	7	4
Ragalyne.	8	4
Rodia.	5	4
Rogillie.	8	4
Regbie.	6	4
Ise.	3	5
Isa.	3	5
Isa.	3	5
Isa.	3	5
Isa.	3	5
RoWette.	7	7
Rotine.	6	7
Rothia.	6	7
Ropie.	5	7
Roenea.	6	7
Andrean.	7	3
Andina.	6	3
Angina.	6	3
Anpine.	6	3
Audie.	5	3
Astella.	7	7
Algina.	6	7
Anne.	4	7
Anameth.	7	7
Annettah.	8	7
Valy.	4	6
Veathelid.	9	6
Vini.	4	6
Vetteen.	7	6
Vile.	4	6
Gudia.	5	7
Gina.	4	7
Gery.	4	7
Gian.	4	7
Gena.	4	7
Maina.	5	7
MeppMa.	6	7
My.	2	7
Madean.	6	7
Marita.	6	7
Gudella.	7	8
Gena.	4	8
Gael.	4	8
Gutiphe.	7	8
Gennae.	6	8
Virtinit.	8	5
Vindra.	6	5
Vinife.	6	5
Vivipperie.	10	5
Veelith.	7	5
Charmdich.	9	6
Catheett.	8	6
Crylyl.	6	6
Charlelia.	9	6
Charendra.	9	6
Mariy.	5	9
Meritta.	7	9
Merte.	5	9
Marxy.	5	9
Marica.	6	9
Jerlie.	6	7
Jennee.	6	7
Joana.	5	7
Javina.	6	7
JoaMa.	5	7
Nanni.	5	4
Niconna.	7	4
Natot.	5	4
Nithade.	7	4
Nitabie.	7	4
Tweris.	6	5
Terestte.	8	5
Tamhia.	6	5
Tettailine.	10	5
Tettith.	7	5
Pheryan.	7	7
Paulina.	7	7
Penniella.	9	7
Pauntitte.	9	7
Pearysha.	8	7
Roenetta.	8	5
Regiana.	7	5
RogiKe.	6	5
Rodie.	5	5
Rony.	4	5
Thekina.	7	8
Tonipa.	6	8
Titha.	5	8
Thon.	4	8
Tonlie.	6	8
Rosia.	5	9
Rovella.	7	9
Rodia.	5	9
Roxite.	6	9
Rosinza.	7	9
Babbina.	7	5
Brinitee.	8	5
Bernine.	7	5
Bristin.	7	5
Bannic.	6	5
Meline.	6	5
Melina.	6	5
Mallie.	6	5
Me.	2	5
Melhian.	7	5
Kynta.	5	7
Kethlyn.	7	7
Kinpee.	6	7
Kipph.	5	7
Kiz.	3	7
Thed.	4	6
Tatona.	6	6
Therta.	6	6
Tertza.	6	6
Tatord.	6	6
Berryatca.	9	7
Berni.	5	7
Bette.	5	7
Baanika.	7	7
Blaine.	6	7
Evie.	4	6
Edeline.	7	6
Evette.	6	6
Eminda.	6	6
Edette.	6	6
Lounelle.	8	7
Lolete.	6	7
Lotte.	5	7
Lanna.	5	7
Lette.	5	7
Hanne.	5	7
Hattel.	6	7
Hallia.	6	7
Hera.	4	7
Hella.	5	7
Kena.	4	4
Karat.	5	4
Kiki.	4	4
Kattiane.	8	4
Kette.	5	4
Rovide.	6	7
Rodia.	5	7
Rothette.	8	7
Rielia.	6	7
Ropya.	5	7
Venaterta.	9	6
Vitt.	4	6
Vilippadeta.	11	6
Vini.	4	6
Vits.	4	6
Marythe.	7	10
Mayree.	6	10
Maley.	5	10
Marita.	6	10
Mied.	4	10
Frendie.	7	6
Flosiat.	7	6
Ferdina.	7	6
Flothilla.	9	6
Flonice.	7	6
Edetta.	6	5
Elly.	4	5
Evie.	4	5
Enna.	4	5
Ertine.	6	5
Jorona.	6	7
Jamine.	6	7
Jadelia.	7	7
Jeanyna.	7	7
Jeresah.	7	7
Bannine.	7	6
Babith.	6	6
Berett.	6	6
Bemcone.	7	6
Beliza.	6	6
Latea.	5	8
Laura.	5	8
Lille.	5	8
Lennia.	6	8
Lathe.	5	8
Kette.	5	6
Kerla.	5	6
Kamie.	5	6
Kaice.	5	6
Kipy.	4	6
Alinia.	6	5
Adrie.	5	5
Aannite.	7	5
Annabel.	7	5
Angicoe.	7	5
Tetabina.	8	6
Tettine.	7	6
Thine.	5	6
Tabbie.	6	6
Thekte.	6	6
Hette.	5	7
Hall.	4	7
Haloph.	6	7
Hanne.	5	7
Han.	3	7
Anialanne.	9	8
Angetta.	7	8
AnneMelle.	9	8
Arejonda.	8	8
Andine.	6	8
Ferisua.	7	6
Fadinda.	7	6
Frennie.	7	6
Fredin.	6	6
Farrittia.	9	6
Katte.	5	7
Kette.	5	7
Kynil.	5	7
Kala.	4	7
Katta.	5	7
Gita.	4	6
Gayn.	4	6
Gabelle.	7	6
Gayx.	4	6
Gabrlha.	7	6
Stean.	5	8
Saly.	4	8
Saal.	4	8
Ston.	4	8
Synsai.	6	8
Christine.	9	7
Charline.	8	7
Cellenn.	7	7
Chiqshin.	8	7
Cathanne.	8	7
Zopie.	5	6
Zstie.	5	6
Zstine.	6	6
Zslym.	5	6
Zsta.	4	6
Ma.	2	10
Memhan.	6	10
Maleey.	6	10
Marei.	5	10
Madettta.	8	10
Pealina.	7	5
Paurie.	6	5
Piandiy.	7	5
Pappenta.	8	5
Prusta.	6	5
Inane.	5	4
Ivay.	4	4
Isa.	3	4
Isa.	3	4
Isa.	3	4
Gusalita.	8	9
Geen.	4	9
Guanda.	6	9
Gena.	4	9
Geta.	4	9
Tamatia.	7	4
Therila.	7	4
Tammie.	6	4
Therdie.	7	4
Tetmona.	7	4
Annaw.	5	9
Anbetta.	7	9
Astalia.	7	9
Anber.	5	9
Annita.	6	9
Nickie.	6	4
Nita.	4	4
Nicil.	5	4
Nanda.	5	4
Nita.	4	4
Donie.	5	4
Dana.	4	4
Dna.	3	4
Donia.	5	4
Denn.	4	4
Btonta.	6	6
Belsette.	8	6
Blay.	4	6
Blar.	4	6
Benalla.	7	6
Lila.	4	5
Latit.	5	5
Laudelle.	8	5
Louthe.	6	5
Lenia.	5	5
Adrah.	5	9
Alnice.	6	9
Andre.	5	9
Annore.	6	9
Annabied.	8	9
Nyttina.	7	6
Nita.	4	6
Nattetia.	8	6
Nitera.	6	6
Nathy.	5	6
Gabylla.	7	7
Ginbine.	7	7
Ginelle.	7	7
Gwen.	4	7
Genet.	5	7
Dany.	4	10
Danna.	5	10
Della.	5	10
Demyl.	5	10
Denn.	4	10
Sha.	3	6
Shar.	4	6
Saba.	4	6
Shanie.	6	6
Stery.	5	6
Prenniic.	8	5
Peelina.	7	5
Pruee.	5	5
PamKidet.	8	5
Paidrice.	8	5
Aliema.	6	7
Amondeth.	8	7
Andone.	6	7
Annel.	5	7
Andre.	5	7
Danna.	5	5
Dna.	3	5
Daan.	4	5
Don.	3	5
Deba.	4	5
Joinah.	6	7
Jeannan.	7	7
Janithe.	7	7
JobitVe.	7	7
Jannistine.	10	7
Charlette.	9	9
Citriee.	7	9
Charline.	8	9
Chardene.	8	9
Chrodrotta.	10	9
Ansonne.	7	7
Argalot.	7	7
Aerie.	5	7
Agdraha.	7	7
Anettn.	6	7
Lathelle.	8	6
Lyne.	4	6
Litte.	5	6
Launa.	5	6
Lynee.	5	6
Nnalea.	6	3
Nikole.	6	3
Netean.	6	3
Nathika.	7	3
Nanni.	5	3
Pearlinette.	11	8
Peergonis.	9	8
Peprora.	7	8
Pamierida.	9	8
Peylita.	7	8
Ketta.	5	7
Kitt.	4	7
Kana.	4	7
Kail.	4	7
Ketta.	5	7
Florene.	7	6
Frosenth.	8	6
Fennislie.	9	6
Florie.	6	6
Flline.	6	6
Mariana.	7	9
Mellie.	6	9
Melliath.	8	9
MaCjh.	5	9
Mazeina.	7	9
Isaq#Vhorlorarye.	16	6
Ina.	3	6
Isa.	3	6
Ise.	3	6
Ina.	3	6
Nanoy.	5	5
Nithe.	5	5
Nathatimy.	9	5
Nanda.	5	5
Nithe.	5	5
Kathe.	5	5
Karia.	5	5
Karite.	6	5
Kelande.	7	5
Kip.	3	5
Therte.	6	8
Theddina.	8	8
Therily.	7	8
Thadetta.	8	8
Tamonda.	7	8
Colitte.	7	6
Caestie.	7	6
Corala.	6	6
Chrissicie.	10	6
Crissa.	6	6
Rodine.	6	4
Ronineanna.	10	4
Rovin.	5	4
Roannian.	8	4
Rosia.	5	4
Mergina.	7	8
Madxi.	5	8
Maleath.	7	8
Merizette.	9	8
Melind.	6	8
Stea.	4	6
Seli.	4	6
Su.	2	6
Salia.	5	6
Stain.	5	6
Maley.	5	8
MaZje.	5	8
Milla.	5	8
Malinn.	6	8
Malin.	5	8
Nioldh.	6	5
Nitabella.	9	5
Nith.	4	5
Nerionee.	8	5
Nithadet.	8	5
Lennin.	6	6
Lake.	4	6
Lynette.	7	6
Lette.	5	6
Letta.	5	6
Kothae.	6	5
Kata.	4	5
Kacis.	5	5
Keth.	4	5
Kipphin.	7	5
Jaslee.	6	4
Jolay.	5	4
Josynne.	7	4
Jannica.	7	4
Jeelind.	7	4
Ranney.	6	6
RoJita.	6	6
Ronne.	5	6
Rodina.	6	6
Ronia.	5	6
Jaisah.	6	7
Jaline.	6	7
Joamone.	7	7
Jammie.	6	7
Jorel.	5	7
Zoth.	4	5
Zenta.	5	5
Zstina.	6	5
Zsta.	4	5
Zstane.	6	5
Licalyn.	7	6
Lasee.	5	6
Lyne.	4	6
Louette.	7	6
Lithanndee.	10	6
Beckee.	6	5
Babbiede.	8	5
Bannita.	7	5
Beinn.	5	5
Blah.	4	5
Chordie.	7	6
Concie.	6	6
Charlie.	7	6
Choudia.	7	6
Chnitah.	7	6
Edette.	6	8
Eria.	4	8
Ezgikon.	7	8
Emalorine.	9	8
Emionnda.	8	8
Parlena.	7	8
Pamina.	6	8
Pailippa.	8	8
Paudicette.	10	8
Prisha.	6	8
AnnesMyn.	8	4
Antine.	6	4
Aline.	5	4
Annaffie.	8	4
Annaff.	6	4
Annamon.	7	6
Adinhia.	7	6
Auganca.	7	6
Adyil.	5	6
Aneita.	6	6
Charlorie.	9	6
Christale.	9	6
Chrissotta.	10	6
Charlothena.	11	6
Chrissalne.	10	6
Andorette.	9	6
Annette.	7	6
Annietta.	8	6
Annice.	6	6
Angida.	6	6
Roina.	5	7
Reggia.	6	7
Roreste.	7	7
Roda.	4	7
Ropeel.	6	7
Annietta.	8	6
Attenita.	8	6
Agginde.	7	6
Angeth.	6	6
Anetey.	6	6
Alaza.	5	8
Annawne.	7	8
Alieta.	6	8
Ancalah.	7	8
Alice.	5	8
Nitella.	7	5
Nandi.	5	5
Noley.	5	5
Nita.	4	5
Nicey.	5	5
Mariza.	6	8
Mariana.	7	8
Magady.	6	8
Mabbie.	6	8
Maira.	5	8
Khet.	4	3
Katy.	4	3
Keth.	4	3
Karri.	5	3
Kidit.	5	3
Patellee.	8	7
Pealitep.	8	7
Peargilie.	9	7
Paulana.	7	7
Prislak.	7	7
Thine.	5	3
Thinah.	6	3
Tatta.	5	3
Teroon.	6	3
Tatte.	5	3
Dodie.	5	6
Dentinia.	8	6
Denne.	5	6
Deanne.	6	6
Danid.	5	6
Bellep.	6	5
Brditie.	7	5
Bengie.	6	5
Betten.	6	5
Bellia.	6	5
Angie.	5	7
Atnia.	5	7
Astabilla.	9	7
Anpita.	6	7
Annie.	5	7
Nanettile.	9	6
Nonike.	6	6
Nita.	4	6
Nassi.	5	6
Nathe.	5	6
Winoth.	6	8
Withe.	5	8
Wendisa.	7	8
Winia.	5	8
Wilia.	5	8
Sta.	3	5
Sere.	4	5
Sell.	4	5
Sala.	4	5
So.	2	5
Emalied.	7	6
Emythe.	6	6
Eldie.	5	6
Ellina.	6	6
Emaliten.	8	6
Consettlin.	10	6
Cherdie.	7	6
Chlette.	7	6
Chernie.	7	6
Charlance.	9	6
Kette.	5	6
Kaceline.	8	6
Kippha.	6	6
Keta.	4	6
Kail.	4	6
Caeliah.	7	5
Charlia.	7	5
Callina.	7	5
Charloena.	9	5
Chailette.	9	5
Laundrie.	8	6
Lathe.	5	6
Lottietta.	9	6
Litta.	5	6
Lille.	5	6
Tielo.	5	5
Therina.	7	5
Thina.	5	5
Terrie.	6	5
Tetlee.	6	5
Jolima.	6	6
Joseye.	6	6
Jaria.	5	6
Josey.	5	6
Jlhanetta.	9	6
Ediel.	5	5
Emithe.	6	5
Emetta.	6	5
Eledine.	7	5
Eobbetta.	8	5
Sha.	3	7
Sale.	4	7
Shain.	5	7
Shelity.	7	7
Sha.	3	7
Jenita.	6	4
Joanna.	6	4
Jemilet.	7	4
Janina.	6	4
Jondi.	5	4
Rovelite.	8	5
Roditne.	7	5
Rege.	4	5
Rore.	4	5
Rodina.	6	5
Loudetta.	8	6
Laria.	5	6
La.	2	6
Lizele.	6	6
Litta.	5	6
Tanah.	5	7
Tandie.	6	7
Tamonla.	7	7
Tharia.	6	7
Thare.	5	7
Celitie.	7	7
Cherlina.	8	7
CarsoJe.	7	7
Celonah.	7	7
Charlotta.	9	7
Teraine.	7	7
Tettithe.	8	7
Tetana.	6	7
Thera.	5	7
Tameen.	6	7
Thina.	5	5
Tabbcahhic.	10	5
Thonna.	6	5
Therelld.	8	5
Thetelll.	8	5
Chrestede.	9	5
Charaogarla.	11	5
Chardytha.	9	5
Charlonie.	9	5
Chrisette.	9	5
Jegnnie.	7	5
Jaline.	6	5
Jenina.	6	5
Josyna.	6	5
Jolyn.	5	5
Frenni.	6	6
Feenit.	6	6
Fartella.	8	6
Feessie.	7	6
Flonudel.	8	6
Chicselopha.	11	6
Charloke.	8	6
Chrodind.	8	6
Charginala.	10	6
Charlonaneel.	12	6
Bettel.	6	6
Bennnette.	9	6
Bethalee.	8	6
Bemell.	6	6
Bencie.	6	6
Calline.	7	7
Charlinih.	9	7
Caminae.	7	7
Chiqustania.	11	7
Carelite.	8	7
Sala.	4	6
Shanni.	6	6
Stell.	5	6
Sharath.	7	6
Sila.	4	6
AnneqXAXXorlynte.	16	6
Anyaa.	5	6
Annie.	5	6
Anie.	4	6
Alahy.	5	6
Cophinie.	8	10
Charendie.	9	10
Clarye.	6	10
Chrisaly.	8	10
Catdita.	7	10
Flodie.	6	6
Floween.	7	6
Florema.	7	6
Feelie.	6	6
Faydiella.	9	6
Betteel.	7	8
Bannie.	6	8
Bettia.	6	8
Bemenette.	9	8
Bacone.	6	8
Lelipe.	6	5
Lichlie.	7	5
Lounia.	6	5
Lisandre.	8	5
Lorette.	7	5
Hania.	5	6
Hende.	5	6
Hette.	5	6
Haulel.	6	6
Haulita.	7	6
Rotine.	6	6
Rodina.	6	6
Rosie.	5	6
Roryly.	6	6
Roeorie.	7	6
Malim.	5	8
Marind.	6	8
Mere.	4	8
Maggit.	6	8
Marice.	6	8
Roseta.	6	7
Ropella.	7	7
Rabona.	6	7
Rodine.	6	7
Rodelita.	8	7
Anginn.	6	8
Annie.	5	8
Aliena.	6	8
Adiell.	6	8
Annaf.	5	8
Emadin.	6	8
Emelda.	6	8
Emalle.	6	8
Elleen.	6	8
Eomian.	6	8
Guenifa.	7	6
Guranda.	7	6
Goonthe.	7	6
GoesLin.	7	6
Gabraitee.	9	6
Mallyma.	7	4
Madewtteath.	11	4
Merine.	6	4
Mala.	4	4
Malip.	5	4
Dasia.	5	5
Deta.	4	5
Deancabele.	10	5
Dane.	4	5
Denia.	5	5
Trohine.	7	4
Theria.	6	4
Thuily.	6	4
Terine.	6	4
Tonis.	5	4
Florien.	7	9
Fanerra.	7	9
Floritha.	8	9
Floriane.	8	9
Fraciko.	7	9
Gana.	4	7
Genoria.	7	7
Gistanie.	8	7
Gwee.	4	7
Guelita.	7	7
Madis.	5	5
Marri.	5	5
Malkie.	6	5
Maleda.	6	5
Memhe.	5	5
Kvie.	4	6
Kare.	4	6
Kippo.	5	6
Korrey.	6	6
Kizin.	5	6
Jenice.	6	11
Jenieke.	7	11
Jenite.	6	11
Janette.	7	11
Jeannete.	8	11
Kacyn.	5	5
Kinta.	5	5
Kancue.	6	5
Katta.	5	5
Kake.	4	5
Jodisa.	6	4
Jazita.	6	4
Jaclyn.	6	4
Jessina.	7	4
Joann.	5	4
Feerisandine.	12	5
Farcimpa.	8	5
Frenni.	6	5
Favette.	7	5
Frajele.	7	5
Annetti.	7	6
Annelle.	7	6
Annel.	5	6
Adgey.	5	6
Anine.	5	6
Angie.	5	8
Anieala.	7	8
Anine.	5	8
Alalide.	7	8
Aelinte.	7	8
Malynn.	6	5
Marlie.	6	5
Madel.	5	5
Mergia.	6	5
Marhiet.	7	5
Annaffa.	7	6
Amalite.	7	6
Annonta.	7	6
Adielle.	7	6
Anynd.	5	6
Annette.	7	6
Annna.	5	6
Annda.	5	6
Anabelle.	8	6
Annice.	6	6
Lathe.	5	7
Lizandan.	8	7
Lileh.	5	7
Lande.	5	7
Latte.	5	7
Thine.	5	5
Tetaine.	7	5
Tadina.	6	5
Tettared.	8	5
Tinziil.	7	5
Fresalia.	8	8
Florine.	7	8
Florie.	6	8
Fronija.	7	8
Floriannika.	11	8
Lissal.	6	5
Lilia.	5	5
LRukeke.	7	5
Lathe.	5	5
Lellayn.	7	5
Sa.	2	4
Sinia.	5	4
Sta.	3	4
Sha.	3	4
Sha.	3	4
Rosiel.	6	7
Roella.	6	7
Rosia.	5	7
Rabee.	5	7
Rotine.	6	7
Malaha.	6	3
Marti.	5	3
Madmid.	6	3
Mirgiana.	8	3
Madelah.	7	3
Deanne.	6	6
Dasna.	5	6
Denika.	6	6
Delle.	5	6
Devamind.	8	6
GaysL.	5	5
Gera.	4	5
Gera.	4	5
Geme.	4	5
Geneanne.	8	5
Magtie.	6	8
Madisa.	6	8
Ma.	2	8
Maddrin.	7	8
Melina.	6	8
ILgette.	7	3
Isa.	3	3
Isa.	3	3
Imamete.	7	3
Isa.	3	3
Elize.	5	5
Etatha.	6	5
Ertine.	6	5
Evinday.	7	5
Eneee.	5	5
Terine.	6	5
Theris.	6	5
Thonette.	8	5
Theda.	5	5
Thidie.	6	5
Phidie.	6	10
Pierette.	8	10
Pamilita.	8	10
Penkine.	7	10
Paklie.	6	10
Ise.	3	4
Inette.	6	4
Isa.	3	4
Ida.	3	4
Isa.	3	4
Sall.	4	3
Sten.	4	3
Shel.	4	3
Shai.	4	3
Seli.	4	3
Baliena.	7	9
Bestelle.	8	9
Bamamita.	8	9
Brysie.	6	9
Berina.	6	9
Gurine.	6	8
Genea.	5	8
Gennamid.	8	8
Gizabey.	7	8
Guillee.	7	8
Emetta.	6	4
Ertine.	6	4
Ericeisa.	8	4
Endie.	5	4
Eland.	5	4
Gaore.	5	5
Gael.	4	5
Gisa.	4	5
Gena.	4	5
Gina.	4	5
Adalis.	6	8
Annie.	5	8
Annie.	5	8
Angifyana.	9	8
Allin.	5	8
Jahidie.	7	7
Jemikey.	7	7
Janette.	7	7
Jittie.	6	7
Janette.	7	7
Concis.	6	4
Chargette.	9	4
Charlode.	8	4
Cristina.	8	4
Cameona.	7	4
Alietta.	7	4
Ataliss.	7	4
Aandra.	6	4
Anahlie.	7	4
Anatee.	6	4
Centhanne.	9	6
Chinda.	6	6
Chickelle.	9	6
Chrisie.	7	6
Charolitech.	11	6
Imie.	4	6
Isa.	3	6
Ivah.	4	6
Isam.	4	6
Isa.	3	6
Dinth.	5	5
Damie.	5	5
Dyam.	4	5
Dade.	4	5
Dey.	3	5
Karya.	5	6
Kapha.	5	6
Katha.	5	6
Kriz.	4	6
Karin.	5	6
Gikoka.	6	5
Glie.	4	5
Gene.	4	5
Gute.	4	5
Geen.	4	5
Dynne.	5	4
Dika.	4	4
Dana.	4	4
Dany.	4	4
DaAna.	5	4
Therey.	6	7
Trende.	6	7
Tonette.	7	7
Tamotee.	7	7
Tabelle.	7	7
Cristh.	6	9
Charalynne.	10	9
Charlota.	8	9
Chemette.	8	9
Charinnaa.	9	9
Astania.	7	6
AnnyTa.	6	6
Anny.	4	6
Anpphya.	7	6
Aanne.	5	6
Lillin.	6	5
Letta.	5	5
Latee.	5	5
Lette.	5	5
Lathieda.	8	5
Ekice.	5	6
Edie.	4	6
Enella.	6	6
Elleelah.	8	6
Emelia.	6	6
Malika.	6	7
Marie.	5	7
Masia.	5	7
MargieAn.	8	7
Mbit.	4	7
Nenine.	6	5
Nithe.	5	5
Nita.	4	5
Nandi.	5	5
Nanalia.	7	5
Elie.	4	6
Evetta.	6	6
Emmiola.	7	6
Edellia.	7	6
Eddalle.	7	6
Charlianna.	10	5
Corette.	7	5
Charlotte.	9	5
Cherliza.	8	5
Chrisianna.	10	5
Annetha.	7	7
Andeen.	6	7
Andrea.	6	7
Angalia.	7	7
Andina.	6	7
Ka.	2	5
Keth.	4	5
Krit.	4	5
Kynthanne.	9	5
Kayso.	5	5
Chrisryl.	8	5
Chartinae.	9	5
Charminnik.	10	5
Charlyne.	8	5
Charidia.	8	5
Jistine.	7	7
Juazia.	6	7
Joyine.	6	7
Jelinay.	7	7
Jodii.	5	7
Fllsie.	6	7
Florissa.	8	7
Frendie.	7	7
Feonndina.	9	7
Freine.	6	7
Latie.	5	4
Lynete.	6	4
Loria.	5	4
Lorine.	6	4
Lettel.	6	4
Saba.	4	6
Sha.	3	6
Sta.	3	6
Shan.	4	6
Sa.	2	6
Marita.	6	8
Marita.	6	8
Madettna.	8	8
Marti.	5	8
Malee.	5	8
Lourot.	6	5
Lynha.	5	5
Lettena.	7	5
Lynte.	5	5
Loudrelle.	9	5
Methedy.	7	8
Mall.	4	8
Marina.	6	8
Mernka.	6	8
Maggine.	7	8
Myrete.	6	5
Madda.	5	5
Maria.	5	5
Madite.	6	5
Madita.	6	5
Aelina.	6	7
Ariette.	7	7
Anpie.	5	7
Annie.	5	7
Anienta.	7	7
Sa.	2	5
Shail.	5	5
Sya.	3	5
Sara.	4	5
Sarita.	6	5
Scele.	5	8
Suel.	4	8
Sael.	4	8
Sellwa.	6	8
Sapa.	4	8
Zsta.	4	4
Zsha.	4	4
Zstipp.	6	4
ZstaVia.	7	4
Zsta.	4	4
Kata.	4	9
Katta.	5	9
Keti.	4	9
Kitt.	4	9
Keth.	4	9
Margielo.	8	5
Malins.	6	5
Mafwlda.	7	5
Maree.	5	5
Ma.	2	5
Angine.	6	7
Andey.	5	7
Alicia.	6	7
Alana.	5	7
Annettangie.	11	7
Aene.	4	6
Aiandal.	7	6
Andina.	6	6
Annily.	6	6
Anphe.	5	6
Dawy.	4	7
Dean.	4	7
Doni.	4	7
Dakne.	5	7
Dake.	4	7
Roplia.	6	6
Ropida.	6	6
Roveina.	7	6
Reggita.	7	6
Rahneth.	7	6
Evalina.	7	4
Enica.	5	4
Evitte.	6	4
Edailea.	7	4
Edaica.	6	4
Loudina.	7	7
Lelor.	5	7
Laun.	4	7
Lilah.	5	7
Latinee.	7	7
Jaynah.	6	7
Jolis.	5	7
Jerelyn.	7	7
Joanncy.	7	7
Jarana.	6	7
Bdrem.	5	4
Berina.	6	4
Bebonel.	7	4
Berrie.	6	4
Beridettina.	11	4
Regb.	4	4
RoWelle.	7	4
Rodine.	6	4
Rosindith.	9	4
Rokonia.	7	4
Nilene.	6	7
Naneina.	7	7
Nitseece.	8	7
Noreria.	7	7
Natay.	5	7
Handa.	5	6
Hacee.	5	6
Hakottianne.	11	6
Hantha.	6	6
Hanthan.	7	6
Dany.	4	4
Dinyj.	5	4
Deane.	5	4
Dee.	3	4
Dena.	4	4
Adeeta.	6	4
Angalla.	7	4
AnnaMarissette.	14	4
Aenia.	5	4
Adit.	4	4
GielfpRee.	9	7
Gina.	4	7
Gena.	4	7
Gere.	4	7
Gwendie.	7	7
Vivipper.	8	6
Velaudina.	9	6
Veronie.	7	6
Vike.	4	6
Vivay.	5	6
Bericea.	7	5
Belli.	5	5
Bamoce.	6	5
Bemelle.	7	5
Binnella.	8	5
Tetla.	5	8
Tereth.	6	8
Tettine.	7	8
Thera.	5	8
Tettine.	7	8
Deanna.	6	6
Demy.	4	6
Dasyn.	5	6
Deant.	5	6
Deka.	4	6
Rotath.	6	7
Roina.	5	7
Rogitie.	7	7
Roonette.	8	7
Rosia.	5	7
Liinah.	6	6
Laena.	5	6
Leela.	5	6
LiTlyn.	6	6
Lathe.	5	6
Beriannie.	9	8
Benntet.	7	8
Blamia.	6	8
Beane.	5	8
Beriel.	6	8
Brannal.	7	5
Berianne.	8	5
Benorita.	8	5
Babine.	6	5
Bennine.	7	5
Jennita.	7	4
Jozie.	5	4
Jaline.	6	4
Jamie.	5	4
Jolia.	5	4
Pearian.	7	6
Paulena.	7	6
Prissia.	7	6
Parlice.	7	6
Peirtha.	7	6
Alvanna.	7	6
Andree.	6	6
Anielle.	7	6
Annie.	5	6
Annababeth.	10	6
Maria.	5	5
Malina.	6	5
Madeisey.	8	5
Merine.	6	5
Made.	4	5
Carrella.	8	7
Callisha.	8	7
Charlotte.	9	7
Charoditha.	10	7
Chillee.	7	7
Emlina.	6	9
Endie.	5	9
Elana.	5	9
Ennie.	5	9
Evemone.	7	9
Malli.	5	8
Maret.	5	8
Marya.	5	8
Maldit.	6	8
Mirita.	6	8
Ginoa.	5	8
Gith.	4	8
Ginoay.	6	8
Gena.	4	8
Grie.	4	8
Tettina.	7	8
Tatoe.	5	8
Thinhe.	6	8
Theria.	6	8
Therie.	6	8
Malin.	5	7
Mala.	4	7
Malahan.	7	7
Margina.	7	7
Maline.	6	7
Angem.	5	8
Annette.	7	8
Angette.	7	8
Annafane.	8	8
Annita.	6	8
Leola.	5	6
Lynniq#CRdista.	14	6
Latie.	5	6
Lyndive.	7	6
Launie.	6	6
Uly.	3	3
Ulkabed.	7	3
Ullie.	5	3
Ursala.	6	3
Ulippiane.	9	3
Chardinda.	9	8
Chlorillee.	10	8
Chertie.	7	8
Condthe.	7	8
Cathiada.	8	8
Winde.	5	6
Wentha.	6	6
Winore.	6	6
Walerix.	7	6
Wina.	4	6
Rovera.	6	9
Rein.	4	9
Relian.	6	9
Reina.	5	9
Rorila.	6	9
Opyl.	4	6
Othe.	4	6
Ociphet.	7	6
Otaly.	5	6
Ocella.	6	6
Isa.	3	8
Isa.	3	8
Isa.	3	8
Isa.	3	8
Isa.	3	8
Edella.	6	3
Esenia.	6	3
Enicellza.	9	3
Emalyn.	6	3
Eugontina.	9	3
Jammimha.	8	7
Jammby.	6	7
Jaline.	6	7
Joanna.	6	7
Joyna.	5	7
Rodina.	6	7
Rorie.	5	7
RoGeet.	6	7
Roeyh.	5	7
Rega.	4	7
Maria.	5	7
Madah.	5	7
Marite.	6	7
Madie.	5	7
Madethe.	7	7
Kinth.	5	6
Karata.	6	6
Kattr.	5	6
Kera.	4	6
Kalor.	5	6
Jessethe.	8	5
Josia.	5	5
Jacikee.	7	5
Jomeh.	5	5
Joxyma.	6	5
Jamiel.	6	6
Jerlotta.	8	6
Jyndel.	6	6
Joanettine.	10	6
Jatnica.	7	6
Corriel.	7	5
Celiney.	7	5
Cyllianlidi.	11	5
Celyce.	6	5
Charlette.	9	5
Deathz.	6	6
Dey.	3	6
Donni.	5	6
Dika.	4	6
Donica.	6	6
Hanna.	5	7
Hanti.	5	7
Hanet.	5	7
Hakha.	5	7
Hasonnd.	7	7
Adgina.	6	10
Andelah.	7	10
Annoanca.	8	10
Adgee.	5	10
Anbelina.	8	10
Mariza.	6	5
Maleay.	6	5
Mabia.	5	5
Mattyn.	6	5
Madie.	5	5
Guedgia.	7	6
Gena.	4	6
GeeH.	4	6
Gunttin.	7	6
Genet.	5	6
Maggin.	6	6
Maria.	5	6
Maline.	6	6
Malah.	5	6
Malin.	5	6
Gela.	4	7
Guenippa.	8	7
Gueline.	7	7
Gabrikah.	8	7
GedeliZ.	7	7
Geen.	4	6
Gera.	4	6
Gabe.	4	6
Gena.	4	6
Guenifa.	7	6
Katte.	5	5
Kattrth.	7	5
Kynthe.	6	5
Kate.	4	5
Katy.	4	5
Rayha.	5	7
Roveelle.	8	7
Reina.	5	7
Rosica.	6	7
Rossita.	7	7
Franche.	7	7
Frareanne.	9	7
Fronee.	6	7
Florine.	7	7
Flosen.	6	7
Litta.	5	5
Latpie.	6	5
Litte.	5	5
Listine.	7	5
Leela.	5	5
Ceridetta.	9	5
Camettee.	8	5
Chloritinah.	11	5
Chereta.	7	5
Chilelle.	8	5
Emettathre.	10	7
Emandelyn.	9	7
Enbien.	6	7
Edikee.	6	7
Enice.	5	7
Claida.	6	9
Chnayde.	7	9
Cathrena.	8	9
Charlley.	8	9
Charlota.	8	9
Adaxathe.	8	7
Annaffa.	7	7
Adgie.	5	7
Anettetta.	9	7
Annette.	7	7
Lottoriontreet.	14	8
Loudette.	8	8
Loriellbine.	11	8
Lilia.	5	8
LoeAna.	6	8
Geen.	4	6
Genet.	5	6
Gera.	4	6
Geniane.	7	6
Gena.	4	6
Gena.	4	8
Gina.	4	8
Gala.	4	8
Gwemirne.	8	8
Giel.	4	8
Mauric.	6	4
Maudie.	6	4
Marie.	5	4
Meriola.	7	4
Makina.	6	4
Lella.	5	5
Latya.	5	5
Loriane.	7	5
Latir.	5	5
Lathe.	5	5
Laurne.	6	6
Littan.	6	6
Lorette.	7	6
LoKdra.	6	6
Litta.	5	6
Suen.	4	7
Sanna.	5	7
Sha.	3	7
Seli.	4	7
Sha.	3	7
Florirte.	8	5
Fredronah.	9	5
FroPiqwnda.	10	5
Floris.	6	5
Frentine.	8	5
Donha.	5	5
De.	2	5
Demy.	4	5
Dea.	3	5
Desel.	5	5
Emitha.	6	10
Eletta.	6	10
Eadoria.	7	10
Evona.	5	10
Enaneste.	8	10
Tette.	5	5
Trollanna.	9	5
Thinna.	6	5
Tetel.	5	5
Thonicah.	8	5
Dencia.	6	5
Dino.	4	5
Deathe.	6	5
Dian.	4	5
Dila.	4	5
De.	2	6
De.	2	6
Deke.	4	6
Dee.	3	6
Denne.	5	6
Andramynh.	9	8
Annie.	5	8
Angel.	5	8
Annetta.	7	8
Astel.	5	8
Emelle.	6	6
Edielka.	7	6
Etepha.	6	6
Estha.	5	6
Ertabe.	6	6
Wandie.	6	5
Wennite.	7	5
Wannida.	7	5
Winth.	5	5
Wintin.	6	5
Angde.	5	7
Anjodise.	8	7
Ada.	3	7
Anie.	4	7
Anardonna.	9	7
Katta.	5	6
Kettera.	7	6
Katta.	5	6
Karli.	5	6
Katy.	4	6
Dacia.	5	4
Dei.	3	4
Devie.	5	4
Deml.	4	4
Dona.	4	4
RopaJa.	6	7
Rdina.	5	7
Rodina.	6	7
Roweth.	6	7
Ronna.	5	7
Francette.	9	5
Fegdida.	7	5
Floreelee.	9	5
Fedette.	7	5
Fronnie.	7	5
Ertet.	5	5
Esmine.	6	5
Elianda.	7	5
Elette.	6	5
Eliza.	5	5
Joanne.	6	5
Janie.	5	5
Joanne.	6	5
Joleye.	6	5
Jannie.	6	5
Karina.	6	5
Kette.	5	5
Karalle.	7	5
Katte.	5	5
Katha.	5	5
Gena.	4	4
Guendinet.	9	4
Gustil.	6	4
Gwelani.	7	4
Geel.	4	4
Jannicee.	8	8
Joanna.	6	8
Jasiph.	6	8
Jernettal.	9	8
Jeannette.	9	8
CharlinEkede.	12	9
Christiena.	10	9
Cherille.	8	9
Congice.	7	9
Chirsina.	8	9
Hany.	4	5
Haloke.	6	5
Heilla.	6	5
Hautia.	6	5
Halopa.	6	5
Lille.	5	8
Lanoda.	6	8
Linette.	7	8
Linettau.	8	8
Letella.	7	8
Deia.	4	6
DeeMe.	5	6
Deanne.	6	6
Diel.	4	6
Deka.	4	6
Eviore.	6	4
Emmielin.	8	4
Eminette.	8	4
Edetre.	6	4
Emwinna.	7	4
Roia.	4	6
Rodiela.	7	6
Romonda.	7	6
Raya.	4	6
Ropeyne.	7	6
Ma.	2	5
Marjien.	7	5
Mellin.	6	5
Marette.	7	5
Mada.	4	5
Annie.	5	9
Adgonikah.	9	9
Argine.	6	9
Anniqp.	6	9
Annah.	5	9
Teralie.	7	7
Tamon.	5	7
Treile.	6	7
Theda.	5	7
Tetta.	5	7
Mailia.	6	8
Masia.	5	8
Maggitpa.	8	8
Maina.	5	8
Maris.	5	8
Carsottee.	9	5
Cathelope.	9	5
Chartinte.	9	5
Chicina.	7	5
Coretina.	8	5
Sea.	3	4
Sa.	2	4
Stibel.	6	4
Sael.	4	4
Sanite.	6	4
Rameth.	6	8
Roelbina.	8	8
Rovifa.	6	8
Regdelle.	8	8
Robitha.	7	8
Male.	4	5
Malasa.	6	5
Madia.	5	5
Magdise.	7	5
Maklea.	6	5
Florytn.	7	6
Florina.	7	6
Felida.	6	6
Froneila.	8	6
Fernaina.	8	6
Charlina.	8	8
Cherill.	7	8
Charlianne.	10	8
Chrrichany.	10	8
Chartancie.	10	8
Vinn.	4	6
Verie.	5	6
Vindia.	6	6
Vile.	4	6
Vanne.	5	6
Bithi.	5	6
Beshettna.	9	6
BettedettKy.	11	6
Bebina.	6	6
Beris.	5	6
Andoh.	5	6
Adette.	6	6
AnneMa.	6	6
Annabee.	7	6
Andrea.	6	6
Yenta.	5	8
Yonia.	5	8
Yesika.	6	8
Yetle.	5	8
YoNie.	5	8
Carlinie.	8	6
Charlorita.	10	6
Chrenci.	7	6
Charlike.	8	6
Chrystie.	8	6
Ertine.	6	7
Elett.	5	7
Edkie.	5	7
Ertiy.	5	7
Editel.	6	7
Lettelie.	8	7
Lorelle.	7	7
Lanna.	5	7
Litta.	5	7
Loudattta.	9	7
Chichela.	8	6
Charolia.	8	6
Chardinda.	9	6
CelOrindie.	10	6
Caniela.	7	6
Dem.	3	5
Deannie.	7	5
Doni.	4	5
Dely.	4	5
Dente.	5	5
Bebiri.	6	8
Brintina.	8	8
Babie.	5	8
Bethelhelle.	11	8
Bobbie.	6	8
GeesV.	5	5
Gissien.	7	5
Gabelna.	7	5
Gera.	4	5
GisWine.	7	5
Angel.	5	7
Annaha.	6	7
Aditelipp.	9	7
Andel.	5	7
Anniila.	7	7
Sha.	3	6
Sh.	2	6
Stea.	4	6
Sali.	4	6
Saan.	4	6
Paulyne.	7	5
Paulene.	7	5
Phinna.	6	5
Peenotianne.	11	5
Prysye.	6	5
Chrislina.	9	4
Cheriene.	8	4
Canlynne.	8	4
Corysta.	7	4
Chlynne.	7	4
Bobath.	6	7
Bertinia.	8	7
Beysaema.	8	7
Bettina.	7	7
Blah.	4	7
Charttyna.	9	8
Charlica.	8	8
Chartheeta.	10	8
Concytte.	8	8
Cathentia.	9	8
TabinaB.	7	7
Thelln.	6	7
Teonn.	5	7
Todah.	5	7
Tharis.	6	7
Annaf.	5	11
Andentel.	8	11
Aniette.	7	11
Alita.	5	11
Adgal.	5	11
Annette.	7	5
Anntie.	6	5
Anne.	4	5
Adita.	5	5
Angyke.	6	5
Ulleane.	7	8
Ulippee.	7	8
Ulisete.	7	8
Ull.	3	8
Uraida.	6	8
Feolika.	7	9
Floreela.	8	9
Fartalla.	8	9
Fainnie.	7	9
Florine.	7	9
Gina.	4	10
Guttdita.	8	10
Gann.	4	10
Gena.	4	10
Gusaline.	8	10
Yanna.	5	5
Yeatina.	7	5
Yette.	5	5
Yette.	5	5
Yette.	5	5
Lettin.	6	8
Lynette.	7	8
Lane.	4	8
Lileanna.	8	8
Lille.	5	8
Lilgellze.	9	8
Lila.	4	8
Litt.	4	8
Lynni.	5	8
Lette.	5	8
Angita.	6	5
Anjina.	6	5
Aldaa.	5	5
Anynte.	6	5
Adamora.	7	5
Mala.	4	7
Margiene.	8	7
Maley.	5	7
Maetta.	6	7
Madeshe.	7	7
Kinth.	5	5
Kett.	4	5
Krylyz.	6	5
Kinth.	5	5
Kette.	5	5
Sha.	3	7
Ses.	3	7
Soliha.	6	7
Shay.	4	7
Sali.	4	7
Katha.	5	7
Kari.	4	7
Kerla.	5	7
Kind.	4	7
Kyie.	4	7
Atiella.	7	8
Anje.	4	8
Angetfy.	7	8
Annne.	5	8
Arieha.	6	8
Marinen.	7	7
Meribella.	9	7
Mades.	5	7
Margie.	6	7
Masee.	5	7
Charienen.	9	6
Chiconne.	8	6
Chrestine.	9	6
Conshu.	6	6
Charenie.	8	6
Bernia.	6	5
Berina.	6	5
Bridoritte.	10	5
Bemona.	6	5
Betteise.	8	5
Pauline.	7	9
Peolielyn.	9	9
Pammitha.	8	9
Prisha.	6	9
Pauline.	7	9
Emalhe.	6	10
Enette.	6	10
Elee.	4	10
Eminina.	7	10
Evie.	4	10
Pennie.	6	6
Peanicia.	8	6
Prusta.	6	6
Paulinalyn.	10	6
Permora.	7	6
Cathayah.	8	5
Chartie.	7	5
Corloria.	8	5
Corlort.	7	5
Charstie.	8	5
Brjoria.	7	5
Blinetta.	8	5
Belian.	6	5
Beynesta.	8	5
Bellia.	6	5
Marbina.	7	5
Malah.	5	5
Margie.	6	5
Madia.	5	5
Melyn.	5	5
Dalla.	5	6
Deanna.	6	6
Dielyn.	6	6
Dans.	4	6
Dietea.	6	6
Romina.	6	6
Roethe.	6	6
Ronica.	6	6
Rogel.	5	6
Roge.	4	6
Lille.	5	4
Liletten.	8	4
Linne.	5	4
LauniAna.	8	4
Lishale.	7	4
Janetha.	7	4
Jacerla.	7	4
Joerr.	5	4
Janette.	7	4
Jacene.	6	4
Lathina.	7	5
Littna.	6	5
Laine.	5	5
Lorabella.	9	5
Lolina.	6	5
Arginia.	7	4
Amitamine.	9	4
Atrio.	5	4
Annabella.	9	4
Adie.	4	4
Pavlette.	8	6
Paudrista.	9	6
Piandah.	7	6
Peeliche.	8	6
Prilne.	6	6
Stea.	4	6
Saly.	4	6
Stel.	4	6
Supa.	4	6
Sta.	3	6
Viliella.	8	5
Vina.	4	5
Vetine.	6	5
Vane.	4	5
Vitl.	4	5
Malla.	5	8
Marja.	5	8
Martine.	7	8
Maren.	5	8
Madba.	5	8
Isa.	3	5
Isa.	3	5
Isa.	3	5
Ilanden.	7	5
Ise.	3	5
Kare.	4	7
Kris.	4	7
Kipha.	5	7
Kera.	4	7
KipcK.	5	7
Tatha.	5	4
Terrie.	6	4
Thianna.	7	4
Tetta.	5	4
Teryc.	5	4
Loroe.	5	9
Laune.	5	9
Lisentin.	8	9
Lynetta.	7	9
Lenit.	5	9
Samellnn.	8	7
Saban.	5	7
Sala.	4	7
Sely.	4	7
Shlon.	5	7
Rone.	4	5
Roana.	5	5
Ropene.	6	5
Rotine.	6	5
Reya.	4	5
Phelie.	6	5
Pannielinne.	11	5
Paulleel.	8	5
Peckah.	6	5
Parlian.	7	5
Dotni.	5	5
Danna.	5	5
Dona.	4	5
Die.	3	5
Dey.	3	5
Melina.	6	4
Madacey.	7	4
Marith.	6	4
Maria.	5	4
Mattie.	6	4
Guarinta.	8	7
Guenoth.	7	7
Genetta.	7	7
Gweacia.	7	7
Gustanda.	8	7
Katth.	5	4
Karia.	5	4
Keth.	4	4
Kato.	4	4
Keth.	4	4
Sina.	4	6
Sali.	4	6
Sela.	4	6
Sala.	4	6
Saph.	4	6
Se.	2	8
Ser.	3	8
Sanellna.	8	8
Stia.	4	8
Sala.	4	8
Ropila.	6	7
Renone.	6	7
Regete.	6	7
Roreha.	6	7
Roniqunette.	11	7
SiniquUre.	9	8
Sha.	3	8
Shann.	5	8
Steax.	5	8
Standia.	7	8
Sesa.	4	6
Sonn.	4	6
Sino.	4	6
Sara.	4	6
Sarie.	5	6
Nanohie.	7	5
Noettell.	8	5
Nanda.	5	5
Nita.	4	5
Netta.	5	5
Annone.	6	3
Anneve.	6	3
AnnaMarie.	9	3
Angite.	6	3
Angie.	5	3
Jolea.	5	6
JaAyna.	6	6
JoAnore.	7	6
Jammina.	7	6
Jaline.	6	6
Marino.	6	6
Merine.	6	6
Mybin.	5	6
Maret.	5	6
Maule.	5	6
Louita.	6	5
Laua.	4	5
Lysna.	5	5
Lisla.	5	5
Litte.	5	5
Cristelle.	9	6
Cathelia.	8	6
Chettifania.	11	6
Charitah.	8	6
Celyda.	6	6
Charlolia.	9	7
Chrissene.	9	7
Charlontea.	10	7
Chilied.	7	7
Chaborie.	8	7
Dean.	4	5
Dana.	4	5
Deilih.	6	5
Dey.	3	5
Dasyna.	6	5
Katte.	5	4
Kitt.	4	4
Katta.	5	4
Kris.	4	4
Kayla.	5	4
Gits.	4	7
Gina.	4	7
Gian.	4	7
Ganet.	5	7
Gabrradie.	9	7
Letta.	5	5
Lette.	5	5
Lille.	5	5
Lorien.	6	5
Leila.	5	5
IRgine.	6	6
Isa.	3	6
Ijaanetta.	9	6
Irina.	5	6
Isa.	3	6
Letticie.	8	6
Lelia.	5	6
Lizabette.	9	6
Lathe.	5	6
Leana.	5	6
Lorayn.	6	5
Lettena.	7	5
Laliane.	7	5
Lette.	5	5
Lateth.	6	5
Tamine.	6	5
Tronda.	6	5
Tabbica.	7	5
Theret.	6	5
Twerdi.	6	5
Katia.	5	9
Kette.	5	9
Kette.	5	9
Kalee.	5	9
Kaka.	4	9
Rosie.	5	8
Rosiah.	6	8
Rova.	4	8
Rovere.	6	8
Raghe.	5	8
Kathe.	5	5
Ketta.	5	5
Ketl.	4	5
KiphK.	5	5
Kayle.	5	5
Matte.	5	6
Merys.	5	6
Melich.	6	6
Martine.	7	6
Mimonetta.	9	6
Zaha.	4	7
Zstine.	6	7
Zane.	4	7
Zsta.	4	7
Zstia.	5	7
Bequinavede.	11	7
Babittilygnnma.	14	7
Bvana.	5	7
Beranda.	7	7
Bemokara.	8	7
Trone.	5	5
Tonipa.	6	5
Thowte.	6	5
Tamoineh.	8	5
Thedga.	6	5
Jackie.	6	5
Joniif.	6	5
Jahsian.	7	5
Jarysta.	7	5
Jannine.	7	5
Edaina.	6	6
Enebett.	7	6
Enella.	6	6
Emjonyd.	7	6
Edieth.	6	6
Andree.	6	6
Annafjana.	9	6
Andina.	6	6
Andina.	6	6
Annetta.	7	6
Ira.	3	4
Isa.	3	4
Isa.	3	4
Isa.	3	4
Isa.	3	4
Perrina.	7	9
Pealetta.	8	9
Pauline.	7	9
Paulice.	7	9
Pauline.	7	9
Vinn.	4	7
Verlie.	6	7
Vann.	4	7
ViolppV.	7	7
Viny.	4	7
Deleo.	5	7
Dannina.	7	7
Dana.	4	7
Dano.	4	7
Dowa.	4	7
Ketla.	5	4
Ketha.	5	4
Kail.	4	4
Katoe.	5	4
Ka.	2	4
Careber.	7	5
Challyndet.	10	5
Ciciminde.	9	5
Chllana.	7	5
Chrestyn.	8	5
Sali.	4	5
She.	3	5
Sha.	3	5
Sti.	3	5
Sali.	4	5
Evine.	5	8
Esette.	6	8
Eminta.	6	8
Emelina.	7	8
Ertine.	6	8
Dia.	3	7
Doana.	5	7
Dana.	4	7
Dawt.	4	7
Danne.	5	7
Shania.	6	6
Shalh.	5	6
Saly.	4	6
Sonow.	5	6
Saly.	4	6
Joede.	5	5
Jonia.	5	5
Jobil.	5	5
Joane.	5	5
Jeliette.	8	5
Anienna.	7	5
Annalda.	7	5
Alace.	5	5
Annie.	5	5
Annilaha.	8	5
Murianne.	8	8
Mariza.	6	8
Maleen.	6	8
Mauga.	5	8
Maline.	6	8
Ropeil.	6	5
Roadine.	7	5
Ropia.	5	5
Rodie.	5	5
Rothie.	6	5
Gena.	4	6
GiaMna.	6	6
Gira.	4	6
Gale.	4	6
Gwelita.	7	6
Mire.	4	4
Maria.	5	4
Malita.	6	4
Maray.	5	4
Mellie.	6	4
Anielle.	7	7
Amolath.	7	7
Argin.	5	7
Andiel.	6	7
Adcie.	5	7
Krie.	4	7
Karye.	5	7
Kato.	4	7
Krieth.	6	7
Karite.	6	7
Paolega.	7	9
Phuroda.	7	9
Perinda.	7	9
Pamette.	7	9
Parentila.	9	9
Mattel.	6	6
Maddarie.	8	6
Maria.	5	6
Marite.	6	6
Merionne.	8	6
Sali.	4	5
Sam.	3	5
Sa.	2	5
Saly.	4	5
Sanuna.	6	5
Jannicia.	8	6
Jeannee.	7	6
Jemminette.	10	6
Jo.	2	6
Janamin.	7	6
Vilika.	6	5
Veelge.	6	5
Vilo.	4	5
Vini.	4	5
Vive.	4	5
Stea.	4	5
Sha.	3	5
Sali.	4	5
Stil.	4	5
Stea.	4	5
Lurette.	7	4
Laael.	5	4
Lelle.	5	4
Litte.	5	4
Lynna.	5	4
Hanna.	5	6
Hallie.	6	6
Hilyn.	5	6
Hanla.	5	6
Hine.	4	6
Babrath.	7	9
Benca.	5	9
Brundeve.	8	9
Blahandana.	10	9
Betgie.	6	9
Jozthe.	6	5
Joomy.	5	5
Jeymorhce.	9	5
Joanne.	6	5
Jovethe.	7	5
Madee.	5	9
Melina.	6	9
Madae.	5	9
Malina.	6	9
Madisia.	7	9
Shana.	5	5
Sael.	4	5
Sanora.	6	5
Sela.	4	5
Shamha.	6	5
Mabath.	6	5
Maria.	5	5
Madece.	6	5
Merande.	7	5
Madoce.	6	5
Evelle.	6	4
Edemen.	6	4
Edikkay.	7	4
Edey.	4	4
Enerika.	7	4
Sarita.	6	5
Sael.	4	5
Sala.	4	5
Sha.	3	5
Saele.	5	5
Regbina.	7	6
Reg.	3	6
Rosibaminne.	11	6
Rogancine.	9	6
Reggiana.	8	6
Waline.	6	9
Winna.	5	9
Wina.	4	9
Wenettin.	8	9
Wintette.	8	9
Sta.	3	5
SaAinandia.	10	5
Seli.	4	5
Saria.	5	5
Sael.	4	5
Deana.	5	6
Dean.	4	6
Demode.	6	6
Dak.	3	6
Deaw.	4	6
Lyneth.	6	6
Lanode.	6	6
Lottika.	7	6
Lisena.	6	6
Lisley.	6	6
Nicona.	6	7
Nicel.	5	7
Nandel.	6	7
Nata.	4	7
Nenne.	5	7
Demz.	4	6
Dedia.	5	6
Danaa.	5	6
Dannia.	6	6
Denn.	4	6
Jannice.	7	7
Jamere.	6	7
Jobie.	5	7
Jenyanna.	8	7
Janicia.	7	7
Sna.	3	3
Sali.	4	3
Sa.	2	3
Sa.	2	3
Stany.	5	3
Lounetta.	8	7
Litet.	5	7
Letah.	5	7
Loritte.	7	7
Lynna.	5	7
Jeelina.	7	6
Jalina.	6	6
Janindatellaa.	13	6
Janirene.	8	6
Janip.	5	6
Emmie.	5	8
Evikee.	6	8
Ediella.	7	8
Edikka.	6	8
Eliza.	5	8
Peurahe.	7	5
Pryniela.	8	5
Patrtette.	9	5
Pamipabah.	9	5
Pauette.	7	5
G.	1	5
Geny.	4	5
G.	1	5
Gabellene.	9	5
Genet.	5	5
Jolyn.	5	8
Jennie.	6	8
JoAly.	5	8
Joyon.	5	8
Jemitette.	9	8
Death.	5	4
Dena.	4	4
Deanne.	6	4
Deana.	5	4
Debe.	4	4
Hanna.	5	6
Hakitca.	7	6
Halaje.	6	6
Henne.	5	6
Heny.	4	6
Nitabelline.	11	6
Nese.	4	6
Nanniana.	8	6
Nemmph.	6	6
Natta.	5	6
Rodertte.	8	8
RoboZe.	6	8
Roeene.	6	8
Rolee.	5	8
Rony.	4	8
14.983861972701405 9 6