Bimie.	5	5
Byshi.	5	5
Bybea.	5	5
Buxie.	5	5
Biarl.	5	5
Cilmarin.	8	8
Chercina.	8	8
Chenyald.	8	8
Chancida.	8	8
Cathrith.	8	8
Reelend.	7	7
Rielety.	7	7
Ranella.	7	7
Rohotha.	7	7
Rathlie.	7	7
Luny.	4	4
Livi.	4	4
Lamm.	4	4
Lein.	4	4
Linn.	4	4
Erettia.	7	7
EWcolla.	7	7
Eveline.	7	7
Evannah.	7	7
EcIely.	6	7
Karl.	4	4
Kely.	4	4
Kali.	4	4
Keli.	4	4
Kate.	4	4
Sephin.	6	6
Shacki.	6	6
Sherin.	6	6
Shavia.	6	6
Salina.	6	6
Colicia.	7	7
Caritte.	7	7
Chitika.	7	7
Clonian.	7	7
Chritte.	7	7
Kassam.	6	6
Kerria.	6	6
Kelisy.	6	6
Kleina.	6	6
Kianda.	6	6
Carlona.	7	7
Celinna.	7	7
Coloroh.	7	7
Candibia.	8	7
Chricie.	7	7
Agel.	4	4
Auil.	4	4
Aphy.	4	4
Aggi.	4	4
Aryl.	4	4
Anstiss.	7	7
Ancella.	7	7
Analira.	7	7
Anellah.	7	7
Aleilah.	7	7
SFndilMa.	8	8
Shilline.	8	8
Sifitalin.	9	8
Sulyleta.	8	8
Stuliisa.	8	8
Oprelse.	7	7
Orlozea.	7	7
Orghett.	7	7
Orrinda.	7	7
Orgella.	7	7
Vania.	5	5
Verla.	5	5
Viola.	5	5
Varsa.	5	5
Vasha.	5	5
Aritas.	6	6
Awbera.	6	6
Agella.	6	6
Ansta.	5	6
Anstys.	6	6
Nagita.	6	6
Nethie.	6	6
Neagcy.	6	6
Neniza.	6	6
Nugina.	6	6
Leni.	4	4
Leva.	4	4
LineM.	5	4
Lisy.	4	4
Lona.	4	4
Neony.	5	5
Nesty.	5	5
Neene.	5	5
Neria.	5	5
Neenz.	5	5
Adeline.	7	8
Angelle.	7	8
Adgeland.	8	8
Antatan.	7	8
Angartea.	8	8
Magga.	5	5
Marle.	5	5
Maris.	5	5
Matho.	5	5
Milla.	5	5
Lhella.	6	6
Lyalla.	6	6
Lynnis.	6	6
Lulana.	6	6
Lennyy.	6	6
Dissa.	5	5
Darly.	5	5
Desta.	5	5
Dandy.	5	5
Daysh.	5	5
Bearine.	7	7
Betthei.	7	7
Balinda.	7	7
Balylon.	7	7
Barlonn.	7	7
Runia.	5	5
Rupha.	5	5
Ruano.	5	5
Rieny.	5	5
Renta.	5	5
Chrissa.	7	7
Chrissa.	7	7
Chrleth.	7	7
Chlisse.	7	7
Chellod.	7	7
Mateya.	6	6
Melley.	6	6
Mornna.	6	6
Mogiel.	6	6
Mannee.	6	6
Pemi.	4	4
Poev.	4	4
Paly.	4	4
Preo.	4	4
Pemi.	4	4
AstatiR.	7	7
Alisty.	6	7
Avernala.	8	7
Annanoe.	7	7
Aanibra.	7	7
Bricelddienne.	13	11
BririaRdelrnette.	16	11
Bamrianne.	9	11
Beandrikinetta.	14	11
Babroeathanditta.	16	11
Kavy.	4	4
Kisl.	4	4
Kisa.	4	4
Kust.	4	4
Katy.	4	4
Jaleetha.	8	8
Jearyn.	6	8
Jamztice.	8	8
Julleyl.	7	8
Jahelia.	7	8
Gerandenta.	10	10
Girdereane.	10	10
Georizillla.	11	10
Gindenstissa.	12	10
Geriandritta.	12	10
Casa.	4	4
Carl.	4	4
Cory.	4	4
Cath.	4	4
Care.	4	4
Deane.	5	5
Daley.	5	5
Dephy.	5	5
Delvi.	5	5
Dista.	5	5
Yitutisse.	9	8
Yis.	3	8
Yeslarah.	8	8
Ydailiss.	8	8
YvelPe.	6	8
Lett.	4	4
Latl.	4	4
Lely.	4	4
Lusy.	4	4
Lany.	4	4
Lacriny.	7	7
Lethell.	7	7
Lwvikia.	7	7
Lanonda.	7	7
Liorlin.	7	7
Marlie.	6	6
Marena.	6	6
Marind.	6	6
Mandie.	6	6
Mervre.	6	6
Janyrda.	7	7
Janiela.	7	7
Janalee.	7	7
JoFlona.	7	7
Jenista.	7	7
Heria.	5	8
Herte.	5	8
Harleyi.	7	8
Herthane.	8	8
Heotel.	6	8
Rurel.	5	5
Russy.	5	5
Repis.	5	5
Rabbe.	5	5
Renty.	5	5
Byndie.	6	6
Birshy.	6	6
Birsya.	6	6
Braxyb.	6	6
Brysta.	6	6
Weonne.	6	6
Wizsia.	6	6
Wertie.	6	6
Wilena.	6	6
Willae.	6	6
Hesty.	5	5
Hinna.	5	5
Hesha.	5	5
Herta.	5	5
Hatya.	5	5
Ruron.	5	5
Roxye.	5	5
Rafin.	5	5
ROrsy.	5	5
Raane.	5	5
Tisha.	5	5
Trysa.	5	5
Taily.	5	5
T.	1	5
Tossi.	5	5
Elinna.	6	6
Erelve.	6	6
Edersy.	6	6
Elesta.	6	6
Euggia.	6	6
Anopohn.	7	7
Alivela.	7	7
Aletinh.	7	7
Alleedaxa.	9	7
Aceemon.	7	7
Athy.	4	4
Agai.	4	4
Alle.	4	4
Auta.	4	4
Auel.	4	4
Girrimine.	9	9
Gendoriza.	9	9
Gemollide.	9	9
Ginreolynd.	10	9
Ganrimott.	9	9
Vasty.	5	5
Visty.	5	5
Vella.	5	5
Vasis.	5	5
Vyche.	5	5
Pella.	5	5
Petra.	5	5
Pathe.	5	5
Peluy.	5	5
Pelia.	5	5
Marhe.	5	5
Matha.	5	5
Merly.	5	5
Merra.	5	5
Meris.	5	5
Shorel.	6	6
Shanna.	6	6
Shabyn.	6	6
Sylela.	6	6
Shanna.	6	6
Jannea.	6	6
Jurlie.	6	6
JoLila.	6	6
Janiel.	6	6
Juelea.	6	6
Enifri.	6	6
Eonnie.	6	6
Esanne.	6	6
Emisha.	6	6
Ellela.	6	6
Maella.	6	6
Moelia.	6	6
Magrie.	6	6
Marrie.	6	6
Meella.	6	6
Berdra.	6	8
Bran.	4	8
Bdillish.	8	8
Briinna.	7	8
Bilqtie.	7	8
Rorylle.	7	7
Reuilla.	7	7
Raninyn.	7	7
Renalia.	7	7
Rosella.	7	7
C.	1	5
CaEna.	5	5
Cotia.	5	5
Canni.	5	5
Clish.	5	5
Anthoca.	7	7
Alinsit.	7	7
Anettal.	7	7
Aboriti.	7	7
Anephea.	7	7
RKovye.	6	6
Rubbey.	6	6
Ronino.	6	6
Rauloa.	6	6
Repina.	6	6
Shanty.	6	6
Shonda.	6	6
Shorea.	6	6
Shtiny.	6	6
Selver.	6	6
Linne.	5	6
Lexena.	6	6
Ldella.	6	6
Lessie.	6	6
Lucura.	6	6
Ritra.	5	5
Rurne.	5	5
Rynti.	5	5
Rodyl.	5	5
Riffa.	5	5
Loril.	5	5
Lonel.	5	5
Luffy.	5	5
Lusty.	5	5
Liaha.	5	5
Nortyele.	8	8
NennDama.	8	8
Netritte.	8	8
Neghalin.	8	8
Nisselia.	8	8
Dessey.	6	6
Daneis.	6	6
Dandia.	6	6
Dayloe.	6	6
Dearya.	6	6
Deuf.	4	4
Dece.	4	4
Dary.	4	4
Dari.	4	4
Dent.	4	4
Klenay.	6	6
Kamyna.	6	6
Kecila.	6	6
Karlka.	6	6
Krista.	6	6
Timi.	4	4
Tisa.	4	4
Tyla.	4	4
Tlmi.	4	4
Tyn.	3	4
Amgeg.	5	5
Angya.	5	5
Allin.	5	5
A.	1	5
A.	1	5
Jislyn.	6	6
Jeerly.	6	6
Jerule.	6	6
Jolina.	6	6
Janity.	6	6
Adnerta.	7	7
Avionda.	7	7
Andrelh.	7	7
Andoria.	7	7
Astetta.	7	7
Tegisa.	6	6
Tzssyn.	6	6
Tiseta.	6	6
Thandy.	6	6
Terina.	6	6
Fureb.	5	6
Felvie.	6	6
Flenna.	6	6
Fissys.	6	6
Finnis.	6	6
T.	1	5
Tarna.	5	5
Tesci.	5	5
Tobet.	5	5
TMily.	5	5
Vethaelle.	9	9
Verthidina.	10	9
Vatetteen.	9	9
Vettaisha.	9	9
Varisdahon.	10	9
Roki.	4	4
Rina.	4	4
Rene.	4	4
Reel.	4	4
Runi.	4	4
Tishi.	5	5
Tamia.	5	5
Telia.	5	5
Tyfsi.	5	5
Tythy.	5	5
Bera.	4	4
Berr.	4	4
Bevi.	4	4
Biff.	4	4
Bera.	4	4
OplClKi.	7	5
Olysa.	5	5
Oryss.	5	5
Olene.	5	5
Orger.	5	5
Jeshar.	6	6
Jarley.	6	6
Johley.	6	6
Jinita.	6	6
Jorta.	5	6
Lendie.	6	6
Launet.	6	6
Lvanke.	6	6
Leovee.	6	6
Lurlia.	6	6
Darylia.	7	7
Dandary.	7	7
Dalvena.	7	7
Dolynna.	7	7
Dannita.	7	7
Hellea.	6	8
Harisa.	6	8
Hertay.	6	8
Higsalia.	8	8
Helch.	5	8
Teve.	4	4
Tysa.	4	4
Trio.	4	4
Tana.	4	4
Tiol.	4	4
Shella.	6	6
Shetta.	6	6
Shalli.	6	6
Shella.	6	6
Shasla.	6	6
Ansetieid.	9	9
Ansstynde.	9	9
Aggon.	5	9
Annetiend.	9	9
Amartetta.	9	9
Kania.	5	5
Kesva.	5	5
Kytha.	5	5
Katti.	5	5
Kisha.	5	5
Kary.	4	4
Keli.	4	4
Kesy.	4	4
Koll.	4	4
Kari.	4	4
Kanente.	7	7
Kacienn.	7	7
Kynnita.	7	7
Kabhina.	7	7
Karinia.	7	7
Adew.	4	4
Auel.	4	4
Aggu.	4	4
Agne.	4	4
Aday.	4	4
Vaorya.	6	6
Vylvie.	6	6
Vernyy.	6	6
Vadsye.	6	6
Vinnie.	6	6
Sadella.	7	7
Shonaly.	7	7
Shphila.	7	7
Sherrie.	7	7
Sylylia.	7	7
Ellyn.	5	5
Ephell.	6	5
EngiH.	5	5
EfUlexo.	7	5
Ellia.	5	5
Raci.	4	4
Renni.	5	4
Roni.	4	4
Roco.	4	4
Romi.	4	4
Repi.	4	4
Rosa.	4	4
Roza.	4	4
Rana.	4	4
Runy.	4	4
Karlia.	6	6
Klobel.	6	6
Kallon.	6	6
Kaonte.	6	6
Kissie.	6	6
Rokelia.	7	7
Ranareid.	8	7
Ranshel.	7	7
Roshore.	7	7
Rohelle.	7	7
Syay.	4	4
Suge.	4	4
Stil.	4	4
Sipa.	4	4
Sony.	4	4
Mond.	4	4
Mysy.	4	4
Mery.	4	4
Mell.	4	4
Meol.	4	4
Mal.	3	8
Mar.	3	8
Mar.	3	8
Mar.	3	8
Milleella.	9	8
Dushe.	5	5
Dossa.	5	5
Daura.	5	5
Dassy.	5	5
Dolda.	5	5
Phac.	4	4
Pari.	4	4
Pavy.	4	4
Pust.	4	4
Ples.	4	4
Carel.	5	5
Cauna.	5	5
Casha.	5	5
Clain.	5	5
Carri.	5	5
Dany.	4	4
Damm.	4	4
Dice.	4	4
Dola.	4	4
Dole.	4	4
Salli.	5	5
Shean.	5	5
Shoil.	5	5
Sandy.	5	5
Seevy.	5	5
Lasind.	6	6
Lorlie.	6	6
Lissie.	6	6
Lamiia.	6	6
Leenna.	6	6
Lafina.	6	6
Lesela.	6	6
Lilete.	6	6
Luxisa.	6	6
Lylvix.	6	6
Neggie.	6	6
Nenina.	6	6
Noniel.	6	6
Nenite.	6	6
Nanita.	6	6
EMely.	5	5
Eleya.	5	5
Esmile.	6	5
Edlin.	5	5
Ellis.	5	5
Cherior.	7	7
Cherora.	7	7
Carimia.	7	7
Caritta.	7	7
Celoroh.	7	7
Valliel.	7	7
Venoste.	7	7
Vananne.	7	7
Valonia.	7	7
Vanleod.	7	7
Fleney.	6	6
Fienia.	6	6
Fimbex.	6	6
Fispar.	6	6
Fyrila.	6	6
Tael.	4	4
Teri.	4	4
Tana.	4	4
Tara.	4	4
TabC.	4	4
Emmastida.	9	9
Enadeadea.	9	9
Ellenitta.	9	9
EllceiniJa.	10	9
Essohrien.	9	9
Tilezia.	7	7
Tefella.	7	7
Tarelah.	7	7
Twellha.	7	7
Trickra.	7	7
Marilor.	7	7
Marriel.	7	7
Merilla.	7	7
Mynciia.	7	7
Marolee.	7	7
Randy.	5	5
Risia.	5	5
Rurie.	5	5
Rebey.	5	5
Ryfma.	5	5
Tylla.	5	5
Tarra.	5	5
Tepzi.	5	5
Tycfi.	5	5
Tamie.	5	5
Ethenia.	7	7
Elleor.	6	7
Enquer.	6	7
Eleenie.	7	7
Evelend.	7	7
Neerisy.	7	7
Narylee.	7	7
Neliste.	7	7
Nepirina.	8	7
Nehriet.	7	7
Sherin.	6	6
Shanne.	6	6
Sinnne.	6	6
Shoris.	6	6
Shanda.	6	6
Angel.	5	5
Andag.	5	5
Adine.	5	5
Ange.	4	5
Arebe.	5	5
Ueffia.	6	6
UWssie.	6	6
Ulande.	6	6
Ulsien.	6	6
Ulanra.	6	6
Txiyn.	5	5
Tlina.	5	5
Trera.	5	5
Telfi.	5	5
Tyffi.	5	5
Leaney.	6	6
Lyrrie.	6	6
Legina.	6	6
Lindes.	6	6
Likely.	6	6
Emlaene.	7	8
Engamaide.	9	8
Elleste.	7	8
Elrera.	6	8
Evielerde.	9	8
Mererie.	7	7
Mermeel.	7	7
Merrell.	7	7
Mertely.	7	7
Marinie.	7	7
Tiavia.	6	6
Terina.	6	6
Tirina.	6	6
Tlolla.	6	6
Tlolly.	6	6
Hernna.	6	6
Hendia.	6	6
Hernis.	6	6
Henita.	6	6
Haleni.	6	6
Franersa.	8	8
Frueline.	8	8
Fronsalo.	8	8
Frittilo.	8	8
Ftanthine.	9	8
Latters.	7	7
Lasiann.	7	7
Lenette.	7	7
Littina.	7	7
Lorleta.	7	7
Beggy.	5	5
Beria.	5	5
Belia.	5	5
Blyni.	5	5
Berla.	5	5
Mebin.	5	5
Mesha.	5	5
Migia.	5	5
Maria.	5	5
Margy.	5	5
Fey.	3	3
Fan.	3	3
Flo.	3	3
Fea.	3	3
Fry.	3	3
Pephedin.	8	8
Pqtttida.	8	8
Palinell.	8	8
Pqtriende.	9	8
Phincian.	8	8
Natti.	5	5
Naada.	5	5
Namoe.	5	5
Nossh.	5	5
Nenel.	5	5
Junetla.	7	7
Jonohel.	7	7
Janelea.	7	7
Janneri.	7	7
Javilia.	7	7
Runi.	4	4
Rini.	4	4
Rebi.	4	4
Ryna.	4	4
Rori.	4	4
Supn.	4	4
Shel.	4	4
Susy.	4	4
SLil.	4	4
SKif.	4	4
Maue.	4	4
Merz.	4	4
Mile.	4	4
Meli.	4	4
Mens.	4	4
Caudie.	6	6
Clevia.	6	6
Charla.	6	6
Challe.	6	6
Carle.	5	6
Allena.	6	6
Adrifa.	6	6
Aidena.	6	6
Anstee.	6	6
Allyna.	6	6
Lusta.	5	5
Lemet.	5	5
Leote.	5	5
Linna.	5	5
Lissy.	5	5
Verior.	6	6
Valina.	6	6
Vinnie.	6	6
Vergia.	6	6
Vagrie.	6	6
Farline.	7	7
Frissue.	7	7
Falinia.	7	7
Frinetg.	7	7
Friszan.	7	7
Enyean.	6	6
Erlend.	6	6
Elalyn.	6	6
Ellisa.	6	6
Edeena.	6	6
Caretta.	7	7
Coriann.	7	7
Cogdria.	7	7
Cariona.	7	7
Candella.	8	7
BAmensa.	7	7
Brandel.	7	7
Bettica.	7	7
Berilla.	7	7
Biandee.	7	7
Carisca.	7	7
Cilleet.	7	7
Clartel.	7	7
Chridyn.	7	7
Critsita.	8	7
Thoramede.	9	8
Territta.	8	8
Tylinte.	7	8
TronyAtta.	9	8
Therlanne.	9	8
Triny.	5	5
Tondi.	5	5
Tergh.	5	5
T.	1	5
Torne.	5	5
Deete.	5	5
Dista.	5	5
Denno.	5	5
Diana.	5	5
Dergo.	5	5
Dondie.	6	6
Dertha.	6	6
Daxina.	6	6
Dexora.	6	6
Dahleh.	6	6
Karelly.	7	7
Karolea.	7	7
Kynelia.	7	7
Karmira.	7	7
Kalvika.	7	7
J.	1	5
Jeela.	5	5
Jusay.	5	5
JoAne.	5	5
Jissa.	5	5
Argiel.	6	6
Alliel.	6	6
Ausgee.	6	6
Alwnnea.	7	6
Arorla.	6	6
Mararifin.	9	9
Mordarlene.	10	9
Manaleana.	9	9
Merreatt.	8	9
Minnestina.	10	9
ROuith.	6	6
Rossin.	6	6
Roxinn.	6	6
Rhella.	6	6
Raxina.	6	6
Vianh.	5	8
Via.	3	8
Vasadon.	7	8
Varindi.	7	8
Velinne.	7	8
Pephy.	5	5
Pysla.	5	5
Parae.	5	5
Pelor.	5	5
Panny.	5	5
Ccelalline.	10	9
Credamely.	9	9
Cittollia.	9	9
Curianina.	9	9
Cherialie.	9	9
Kosta.	5	5
Katis.	5	5
Kaphe.	5	5
Keasa.	5	5
Karal.	5	5
Kaull.	5	5
Kiana.	5	5
Klona.	5	5
Kieve.	5	5
Kyday.	5	5
Oliystia.	8	7
Oliszal.	7	7
Orennie.	7	7
Odranisa.	8	7
Ornerta.	7	7
Pirf.	4	4
Peli.	4	4
Pror.	4	4
Pest.	4	4
Pela.	4	4
Tisha.	5	5
Telra.	5	5
Turne.	5	5
Tahne.	5	5
Tamey.	5	5
Cilda.	5	5
Caree.	5	5
Cosha.	5	5
CLany.	5	5
Cvirl.	5	5
Cinyrl.	6	6
Cardia.	6	6
Carlia.	6	6
Cariel.	6	6
Cissin.	6	6
Mathi.	5	5
Melia.	5	5
Mayll.	5	5
Meria.	5	5
Marsy.	5	5
Jreai.	5	5
Jesha.	5	5
Jelea.	5	5
Jinit.	5	5
Jache.	5	5
Karylia.	7	7
Kartori.	7	7
Keletha.	7	7
Kalenha.	7	7
Kinalea.	7	7
Meyttette.	9	10
Merdolenne.	10	10
Margelotte.	10	10
Methanidalne.	12	10
MertaitraiasRa.	14	10
Janral.	6	6
Jonena.	6	6
Jegtie.	6	6
Jotane.	6	6
Jegves.	6	6
Bethen.	6	6
Balloi.	6	6
Bandie.	6	6
Bessie.	6	6
Bannis.	6	6
Salph.	5	5
S.	1	5
Shial.	5	5
Sebie.	5	5
Shlci.	5	5
Ethina.	6	6
Erinel.	6	6
Enissy.	6	6
Emelya.	6	6
Essera.	6	6
Jobi.	4	4
Jett.	4	4
Jany.	4	4
Jiet.	4	4
Jend.	4	4
Aaleuha.	7	7
Armerie.	7	7
Alyssie.	7	7
Arleona.	7	7
Angolin.	7	7
Georre.	6	6
GTelyn.	6	6
GAslyn.	6	6
Geella.	6	6
GKalie.	6	6
Phinnine.	8	8
Pherland.	8	8
Phiretta.	8	8
Pemollin.	8	8
Philiand.	8	8
Chrissa.	7	7
Colella.	7	7
Crianda.	7	7
Chilamy.	7	7
Chellis.	7	7
Jelvise.	7	8
Jylleeda.	8	8
Jeandre.	7	8
Jeoreed.	7	8
JocrlPn.	7	8
Cloria.	6	6
Clonie.	6	6
Cheena.	6	6
Celley.	6	6
Ceggye.	6	6
Tayli.	5	5
Tetta.	5	5
Tlgit.	5	5
Talle.	5	5
Teshe.	5	5
Meanny.	6	6
Megnen.	6	6
Messia.	6	6
Mernel.	6	6
Meonna.	6	6
Lielle.	6	6
Lillis.	6	6
Lauhra.	6	6
Laeles.	6	6
Liline.	6	6
Janete.	6	6
Jexina.	6	6
Jefley.	6	6
Jeglyn.	6	6
Jibell.	6	6
Dobella.	7	7
DEnella.	7	7
Dailina.	7	7
Denisel.	7	7
Denonna.	7	7
Donanah.	7	7
Dahrasa.	7	7
Darreel.	7	7
Daropha.	7	7
Dolinda.	7	7
Isteta.	6	5
Iphwunt.	7	5
Idosa.	5	5
Imesh.	5	5
Idgeon.	6	5
Alesti.	6	6
Adalia.	6	6
Adrece.	6	6
Ausinn.	6	6
Alelar.	6	6
Agge.	4	4
Auie.	4	4
Amora.	5	4
Alsy.	4	4
Alin.	4	4
Kothya.	6	6
Kittie.	6	6
Khella.	6	6
Kalnia.	6	6
Kahlen.	6	6
Chuina.	6	6
Crirry.	6	6
Calloh.	6	6
Caella.	6	6
CKlvne.	6	6
Lasam.	5	5
Lenni.	5	5
Lusta.	5	5
Logey.	5	5
Lusil.	5	5
Kicattodila.	11	9
Klzzasti.	8	9
Ketthilla.	9	9
Ketrilynne.	10	9
Katelda.	7	9
Kishi.	5	5
Katha.	5	5
Kasel.	5	5
Klary.	5	5
Kelia.	5	5
Iraldie.	7	7
Ionella.	7	7
Isisie.	6	7
Ivelle.	6	7
Ihe.	3	7
Dersy.	5	5
Darle.	5	5
Dorli.	5	5
Dayle.	5	5
Diena.	5	5
Carinde.	7	7
Conchin.	7	7
Carleha.	7	7
Careida.	7	7
Chelila.	7	7
Audis.	5	5
Annes.	5	5
A.	1	5
Augne.	5	5
Aussi.	5	5
Wanylla.	7	7
Wicikon.	7	7
Wanicea.	7	7
Wichely.	7	7
Waniina.	7	7
Lalily.	6	7
Larwine.	7	7
Loracha.	7	7
Lustine.	7	7
Layhina.	7	7
Ene.	3	3
Ena.	3	3
Eri.	3	3
EviJan.	6	3
Eva.	3	3
Doena.	5	5
Darly.	5	5
Dersy.	5	5
Dibin.	5	5
Desin.	5	5
Seblin.	6	5
Sispa.	5	5
Salii.	5	5
Synis.	5	5
Siana.	5	5
Lonni.	5	4
Lamy.	4	4
Lugi.	4	4
Lina.	4	4
Lena.	4	4
Meogre.	6	6
Meniel.	6	6
Maukae.	6	6
Messiz.	6	6
Messyn.	6	6
Noniona.	7	7
Nelerta.	7	7
Nenitte.	7	7
Nanette.	7	7
Nrtekie.	7	7
Roolent.	7	7
Renothe.	7	7
Rannoth.	7	7
RosikiJa.	8	7
Rohemon.	7	7
Atillah.	7	7
ANrett.	6	7
Ailaris.	7	7
Annatta.	7	7
Adrucia.	7	7
Ulayre.	6	6
Ungary.	6	6
Ulenne.	6	6
Ulinna.	6	6
UKngee.	6	6
Lalerdy.	7	7
Loretta.	7	7
Lathera.	7	7
Lynhica.	7	7
Lianiel.	7	7
Kalle.	5	5
Kysty.	5	5
KMrdy.	5	5
Kandy.	5	5
Kasta.	5	5
TMenv.	5	5
Tynne.	5	5
Tuene.	5	5
Tponi.	5	5
Tariy.	5	5
Haggy.	5	5
Haryl.	5	5
Henna.	5	5
Hoell.	5	5
Henda.	5	5
Eminey.	6	6
Edeney.	6	6
Elmebe.	6	6
Edelia.	6	6
Emonne.	6	6
Anrista.	7	8
Akqpertie.	9	8
Adretahin.	9	8
AOnaline.	8	8
Adireen.	7	8
Aderl.	5	5
Auber.	5	5
Adera.	5	5
A.	1	5
Ainnea.	6	5
Anni.	4	4
Agde.	4	4
Adel.	4	4
Agel.	4	4
Aggi.	4	4
Jeettta.	7	7
Joredda.	7	7
Jeriana.	7	7
Jacerla.	7	7
Jerelyn.	7	7
Dalliy.	6	6
Doanda.	6	6
Deanne.	6	6
Darido.	6	6
Deriss.	6	6
Cellien.	7	7
Corelen.	7	7
Cozelia.	7	7
Carline.	7	7
Crittin.	7	7
Krelia.	6	6
Kannie.	6	6
Kasane.	6	6
Kelcie.	6	6
Kissam.	6	6
Sasia.	5	5
Sarab.	5	5
Shell.	5	5
Syael.	5	5
Shery.	5	5
Cherlaa.	7	7
Chryste.	7	7
Charhan.	7	7
Chratea.	7	7
Canlean.	7	7
Hirla.	5	5
Harle.	5	5
Hiona.	5	5
Heegi.	5	5
Hella.	5	5
Channie.	7	7
Cherisa.	7	7
Chellen.	7	7
Cortike.	7	7
Chellia.	7	7
Nessy.	5	5
Neily.	5	5
Nanye.	5	5
Nasel.	5	5
Nista.	5	5
Idass.	5	5
Illis.	5	5
Isoel.	5	5
Imele.	5	5
Ildsa.	5	5
Anissa.	6	6
Aisesa.	6	6
Arenah.	6	6
Aleven.	6	6
Aissie.	6	6
Brisi.	5	5
Bersa.	5	5
Bylli.	5	5
Bienn.	5	5
Bessi.	5	5
Marline.	7	7
Maithah.	7	7
Molilda.	7	7
MeTlonh.	7	7
Manenna.	7	7
Pessy.	5	5
Peuna.	5	5
Penna.	5	5
Pargo.	5	5
Pelli.	5	5
Caraniquella.	12	10
Chittisheella.	13	10
Chrriengelva.	12	10
Cgureenella.	11	10
Candarinep.	10	10
Eilka.	5	5
Elmah.	5	5
Elyne.	5	5
Edrah.	5	5
Edora.	5	5
Jrenia.	6	6
Jeshia.	6	6
Jellid.	6	6
Jorlie.	6	6
Jrenda.	6	6
Jorina.	6	6
Jessie.	6	6
Jelena.	6	6
Jaenne.	6	6
Jeelis.	6	6
Evalla.	6	6
Edenta.	6	6
Elerra.	6	6
Elondi.	6	6
Erynne.	6	6
Chelia.	6	6
Cerise.	6	6
Caulda.	6	6
Clyssa.	6	6
Chrena.	6	6
Essyll.	6	6
Eripta.	6	6
Elenny.	6	6
Elomie.	6	6
Eassyn.	6	6
Chrand.	6	6
Cersna.	6	6
Cherra.	6	6
Crolli.	6	6
Cirnna.	6	6
Shella.	6	6
Shella.	6	6
Sharid.	6	6
Sammil.	6	6
Shalla.	6	6
Aphie.	5	5
Aensa.	5	5
Angel.	5	5
Ariss.	5	5
Aubeg.	5	5
Anntica.	7	7
Amutllh.	7	7
Agsamine.	8	7
Annelva.	7	7
Anmulin.	7	7
Fibyna.	6	6
Faufra.	6	6
Fevvia.	6	6
Fristi.	6	6
Fillia.	6	6
Ardely.	6	6
Ansene.	6	6
Allisy.	6	6
Alylis.	6	6
Amavel.	6	6
Zath.	4	4
Zena.	4	4
Zegy.	4	4
Zonny.	5	4
Zann.	4	4
Mercier.	7	7
Maretty.	7	7
Meocien.	7	7
Mrorora.	7	7
Mygeria.	7	7
Mette.	5	8
Michorda.	8	8
Manellah.	8	8
Mar.	3	8
Marqmalie.	9	8
A.	1	5
Attes.	5	5
Adila.	5	5
A.	1	5
Adnis.	5	5
Christilien.	11	10
Chrielindria.	12	10
ChrisaFritti.	12	10
Cetherindenda.	13	10
Cagitrizerdella.	15	10
Bernae.	6	6
Berrin.	6	6
Berisa.	6	6
Breney.	6	6
Bhelia.	6	6
Shemiri.	7	7
Sanella.	7	7
Suolvee.	7	7
Sopilda.	7	7
Shartea.	7	7
Evryn.	5	5
Ellia.	5	5
Elriz.	5	5
Elyze.	5	5
Ellyn.	5	5
Mar.	3	8
Mengolga.	8	8
Mkquleko.	8	8
Mar.	3	8
Mizelian.	8	8
Allyna.	6	6
Almely.	6	6
Ansril.	6	6
Ameniss.	7	6
Arorse.	6	6
Ordina.	6	6
Orinsa.	6	6
Orygha.	6	6
Olelia.	6	6
Olliez.	6	6
Jeneria.	7	7
Jacanne.	7	7
Jacella.	7	7
Jobeele.	7	7
Jermtie.	7	7
Kachina.	7	8
Ktrystella.	10	8
Kathaila.	8	8
Kiamelza.	8	8
Kttulyne.	8	8
RWXfeYwV.	8	5
Reena.	5	5
Rukki.	5	5
Renil.	5	5
Rufea.	5	5
Ambrimars.	9	9
Annetdine.	9	9
Adriania.	8	9
Andleerena.	10	9
Auhelitte.	9	9
AdGetti.	7	7
Annrior.	7	7
Asnaret.	7	7
Annutcy.	7	7
Annshah.	7	7
Tibli.	5	5
Tussy.	5	5
Tisvy.	5	5
Trynn.	5	5
Tella.	5	5
Panni.	5	5
Penne.	5	5
Perth.	5	5
Paena.	5	5
Pessa.	5	5
Sher.	4	4
Stoy.	4	4
Sory.	4	4
Shel.	4	4
Shee.	4	4
Magna.	5	5
Magdi.	5	5
Malis.	5	5
Merte.	5	5
Marii.	5	5
Darind.	6	6
Dottie.	6	6
Daglie.	6	6
Dassia.	6	6
Derena.	6	6
Hannia.	6	6
Hellyn.	6	6
Haonne.	6	6
Hannar.	6	6
Haneta.	6	6
Bilis.	5	5
Berle.	5	5
Beady.	5	5
Breli.	5	5
Beley.	5	5
Mely.	4	4
Meria.	5	4
Masl.	4	4
Meri.	4	4
Mitt.	4	4
Datty.	5	5
Duste.	5	5
Delll.	5	5
Deina.	5	5
Dessa.	5	5
Arsayl.	6	6
Anatta.	6	6
Alsina.	6	6
Allena.	6	6
Andell.	6	6
Menda.	5	5
Malva.	5	5
Myssy.	5	5
Maino.	5	5
Mathy.	5	5
Terrie.	6	6
Torina.	6	6
Tdarie.	6	6
Tanita.	6	6
Tarrie.	6	6
Mardi.	5	5
Muann.	5	5
Marys.	5	5
Marla.	5	5
Migdy.	5	5
A.	1	5
ADera.	5	5
A.	1	5
Ailsa.	5	5
Allia.	5	5
Verthie.	7	8
Vigolli.	7	8
Vissary.	7	8
VantiW.	6	8
Vilaine.	7	8
Tysty.	5	5
T.	1	5
Tilis.	5	5
Tainy.	5	5
Tussa.	5	5
Lyndolith.	9	8
Lelo.	4	8
Leanonna.	8	8
Lynatta.	7	8
Lannille.	8	8
Nuy.	3	3
Nea.	3	3
Nen.	3	3
Nla.	3	3
Nea.	3	3
Frynna.	6	6
Frorey.	6	6
Frundi.	6	6
Fannoc.	6	6
Friema.	6	6
G.	1	5
Gille.	5	5
Gissa.	5	5
Gethe.	5	5
Gelli.	5	5
Darila.	6	6
Dollyl.	6	6
Duphra.	6	6
Derier.	6	6
Dacnya.	6	6
Katti.	5	5
Katha.	5	5
Kycwa.	5	5
Kelia.	5	5
Kescy.	5	5
Elin.	4	4
Essy.	4	4
EAnn.	4	4
Elee.	4	4
Ella.	4	4
AlianVa.	7	3
Atta.	4	3
Avi.	3	3
Ath.	3	3
Ais.	3	3
Briadon.	7	8
Beranni.	7	8
Brynda.	6	8
Belitri.	7	8
Bellity.	7	8
Mella.	5	5
Magha.	5	5
Moley.	5	5
Mathi.	5	5
Meona.	5	5
Lesha.	5	5
Lushe.	5	5
Laili.	5	5
Lacen.	5	5
Lenny.	5	5
Jorrin.	6	6
Jessih.	6	6
Jenore.	6	6
Jambil.	6	6
Jotila.	6	6
Chetella.	8	8
Chelitan.	8	8
Chenciana.	9	8
Chenella.	8	8
Chattile.	8	8
Lessi.	5	5
Lushi.	5	5
Lisla.	5	5
Lelbi.	5	5
Layni.	5	5
Javoria.	7	7
Jycalie.	7	7
Jofiber.	7	7
Jeethra.	7	7
Jonissa.	7	7
Larie.	5	8
Lelilyn.	7	8
Lefrylia.	8	8
Lerineta.	8	8
Larlyne.	7	8
Pesse.	5	5
Petti.	5	5
Pergy.	5	5
Pusha.	5	5
Pamma.	5	5
Ganlyns.	7	7
Greriah.	7	7
Grielin.	7	7
Gorilin.	7	7
Griella.	7	7
Chebel.	6	6
Chelia.	6	6
Clisde.	6	6
Clynne.	6	6
Cansil.	6	6
Jonneanertha.	12	9
Jennedande.	10	9
Jsaprentah.	10	9
Janelaryn.	9	9
JeanaJelyn.	10	9
Saili.	5	5
Syona.	5	5
Sybly.	5	5
Sathi.	5	5
Sisda.	5	5
Arirea.	6	6
Alissa.	6	6
Angisa.	6	6
Arohie.	6	6
Arilia.	6	6
Kerdi.	5	5
Kysha.	5	5
Kyrna.	5	5
Kathe.	5	5
Kania.	5	5
Bmoressini.	10	9
Berliedard.	10	9
Beruryend.	9	9
Berletta.	8	9
Berthitra.	9	9
Nanna.	5	5
Nelra.	5	5
Nenay.	5	5
Nisma.	5	5
Nalia.	5	5
Anissa.	6	6
Ardela.	6	6
Arrana.	6	6
Amelia.	6	6
Aggien.	6	6
Tyn.	3	4
Tama.	4	4
Teen.	4	4
Tefri.	5	4
Tell.	4	4
Dargy.	5	5
Della.	5	5
Deshe.	5	5
Dicia.	5	5
Dalyn.	5	5
Gigi.	4	4
Gess.	4	4
Gech.	4	4
Gere.	4	4
Gerl.	4	4
MarL.	4	4
Misha.	5	4
Mero.	4	4
Meko.	4	4
Meri.	4	4
Lychay.	6	6
Lorlia.	6	6
Lessie.	6	6
Lhelee.	6	6
Liavly.	6	6
Joliann.	7	8
Jellyne.	7	8
Jalyssah.	8	8
Jasimette.	9	8
Jadalyn.	7	8
Reti.	4	4
Ruel.	4	4
Refi.	4	4
Rona.	4	4
Roza.	4	4
Tilfor.	6	6
Terine.	6	6
Tinyla.	6	6
Thelly.	6	6
Teline.	6	6
Monalye.	7	7
Mettenn.	7	7
Mennisd.	7	7
Manotha.	7	7
Manorya.	7	7
Onnind.	6	6
Okosia.	6	6
Othela.	6	6
Orelia.	6	6
Olinda.	6	6
Anmattabin.	10	10
Annelcina.	9	10
Aloxephellyn.	12	10
AnmibiYtene.	11	10
Anceoleene.	10	10
Deghdy.	6	6
Donita.	6	6
Donina.	6	6
Dattin.	6	6
Dexora.	6	6
Mara.	4	4
Moel.	4	4
Meal.	4	4
Mile.	4	4
Mera.	4	4
Cherrika.	8	8
Cherra.	6	8
ClarloLe.	8	8
Cileedra.	8	8
Charanna.	8	8
GKella.	6	6
GKassa.	6	6
Gorita.	6	6
Grandi.	6	6
Geanna.	6	6
SKrina.	6	6
Sellie.	6	6
Shavia.	6	6
Stulin.	6	6
Sissyn.	6	6
Kylda.	5	5
Kanni.	5	5
Kanel.	5	5
Kixie.	5	5
Kynyl.	5	5
Dissy.	5	5
Delna.	5	5
Derle.	5	5
Disni.	5	5
Dylia.	5	5
Disty.	5	5
Desia.	5	5
Danyt.	5	5
Dalee.	5	5
Deady.	5	5
Beve.	4	4
Bena.	4	4
Bayy.	4	4
Bbes.	4	4
Bish.	4	4
Edaria.	6	6
Emelvy.	6	6
Eellyr.	6	6
Emanay.	6	6
Emgiel.	6	6
Dacinea.	7	8
Delilinn.	8	8
Desanal.	7	8
Delonea.	7	8
Dyssina.	7	8
Tanille.	7	7
Tamille.	7	7
Tarleni.	7	7
Thellee.	7	7
Tanstah.	7	7
Olerla.	6	6
Ollisa.	6	6
Oleera.	6	6
Ophela.	6	6
Olirin.	6	6
Loni.	4	4
Lici.	4	4
Lasy.	4	4
Lary.	4	4
Lini.	4	4
Harli.	5	5
Hassa.	5	5
Hatho.	5	5
Hashe.	5	5
Hiphy.	5	5
Erge.	4	4
Eryn.	4	4
Emer.	4	4
Egel.	4	4
Eole.	4	4
Wilondiine.	10	10
Wilistinarine.	13	10
Wyermilorine.	12	10
Wrahellika.	10	10
WeaneMixeta.	11	10
Cre.	3	3
Can.	3	3
Catha.	5	3
Cattie.	6	3
Cha.	3	3
Agtelikarin.	11	10
Anteli.	6	10
Avarierine.	10	10
Annelietttte.	12	10
Anneniniella.	12	10
Olelah.	6	6
Olisis.	6	6
Olstia.	6	6
Ollina.	6	6
Olitla.	6	6
Rabi.	4	4
Runi.	4	4
Reee.	4	4
Roni.	4	4
Rutt.	4	4
Vedan.	5	5
Vamis.	5	5
Vashy.	5	5
Valle.	5	5
Valle.	5	5
Emmi.	4	3
Esse.	4	3
Eda.	3	3
Ety.	3	3
Emmi.	4	3
Min.	3	3
Mer.	3	3
Mex.	3	3
Mao.	3	3
Met.	3	3
Lonatin.	7	7
Levelma.	7	7
Lathier.	7	7
Lathkime.	8	7
Lanella.	7	7
Jasitia.	7	8
Jestina.	7	8
Jegowen.	7	8
Janoroke.	8	8
Jac.	3	8
Bil.	3	8
Bantta.	6	8
Bilynne.	7	8
Bifnett.	7	8
Bonnatre.	8	8
Felind.	6	6
Fricta.	6	6
Fawcen.	6	6
Fryney.	6	6
Flonna.	6	6
Brish.	5	5
Biant.	5	5
Begvi.	5	5
Bramy.	5	5
Brayl.	5	5
Halderl.	7	7
Hendetl.	7	7
Hellena.	7	7
Harikah.	7	7
Helerea.	7	7
Cettayeta.	9	9
Ccerebeennt.	11	9
Cephertone.	10	9
Cllestely.	9	9
Cephelina.	9	9
Mametta.	7	7
Melnerh.	7	7
Mellata.	7	7
Maratle.	7	7
Magilla.	7	7
Squino.	6	6
Shaill.	6	6
Stulri.	6	6
Shalie.	6	6
Shanna.	6	6
Almelon.	7	7
Avarcarne.	9	7
Aacquille.	9	7
Aoletsi.	7	7
Adolita.	7	7
Berryllus.	9	9
Belleella.	9	9
Bontretta.	9	9
Bebrissanne.	11	9
Balenella.	9	9
Favilla.	7	7
Flarike.	7	7
Forttia.	7	7
Fatrina.	7	7
Faissah.	7	7
Parly.	5	5
Pashi.	5	5
Pella.	5	5
Pergy.	5	5
Ptini.	5	5
Colloid.	7	7
Corinie.	7	7
Chellia.	7	7
Chlrile.	7	7
Crarion.	7	7
Evelene.	7	7
Evelina.	7	7
Emmilie.	7	7
Evelinn.	7	7
Evantay.	7	7
Evarane.	7	7
Evelissa.	8	7
Evalidka.	8	7
Ewvenka.	7	7
Eveleka.	7	7
Andel.	5	5
Angye.	5	5
Augey.	5	5
Andia.	5	5
Aulle.	5	5
Annahya.	7	8
Angella.	7	8
Angamila.	8	8
Atrynda.	7	8
Alladie.	7	8
Cechri.	6	6
Cissie.	6	6
Crelin.	6	6
Citsyn.	6	6
Cerrah.	6	6
Linila.	6	6
Linne.	5	6
Lettia.	6	6
Lavine.	6	6
Loniss.	6	6
Carry.	5	5
Citha.	5	5
Casty.	5	5
Ciaga.	5	5
Cisse.	5	5
Maslie.	6	6
Merthi.	6	6
Miolia.	6	6
Myniel.	6	6
Marena.	6	6
Currya.	6	6
Certa.	5	6
Cramel.	6	6
Cissie.	6	6
Crysta.	6	6
Tirerlea.	8	8
Telintin.	8	8
Ttorline.	8	8
Tharleze.	8	8
Tissrali.	8	8
Elci.	4	4
Elve.	4	4
Ermz.	4	4
Essa.	4	4
Elgi.	4	4
Coghiline.	9	9
Crulainda.	9	9
Cortarira.	9	9
Cirtemini.	9	9
CorricCh.	8	9
Andilrin.	8	8
Alleena.	7	8
Arb.	3	8
Anginta.	7	8
Anneste.	7	8
Ba.	2	2
Be.	2	2
Bj.	2	2
Be.	2	2
Bg.	2	2
Stens.	5	5
Sinna.	5	5
Sxuny.	5	5
Synne.	5	5
Sybia.	5	5
T.	1	5
Taell.	5	5
Typre.	5	5
TNisy.	5	5
Tarla.	5	5
Angal.	5	5
ArAti.	5	5
Ange.	4	5
Angara.	6	5
Ailvab.	6	5
Filisa.	6	6
Frissa.	6	6
Fiella.	6	6
Fretha.	6	6
Forina.	6	6
Daanna.	6	6
Deansa.	6	6
Denile.	6	6
Dexine.	6	6
Dasine.	6	6
Zotta.	5	5
Zolny.	5	5
Zeave.	5	5
Zette.	5	5
Zenna.	5	5
Baria.	5	8
BertahelR.	9	8
Belonil.	7	8
Biangeta.	8	8
Bithana.	7	8
Missi.	5	5
Maral.	5	5
Manna.	5	5
Mishi.	5	5
Mella.	5	5
Korela.	6	6
Kartea.	6	6
Kolila.	6	6
Kisana.	6	6
Kactie.	6	6
Dondeta.	7	7
Dadella.	7	7
Deereti.	7	7
Desoris.	7	7
Dalidaa.	7	7
Letn.	4	4
Leno.	4	4
Loel.	4	4
Lima.	4	4
Litt.	4	4
Frinyada.	8	8
Fabettia.	8	8
Floria.	6	8
Frayotet.	8	8
Famlita.	7	8
Christellee.	11	10
Chirtasiandi.	12	10
Corlynniend.	11	10
Chrrilinna.	10	10
Chorelelia.	10	10
Imelia.	6	6
Ivelce.	6	6
Inanet.	6	6
Iumena.	6	6
Idanny.	6	6
Anda.	4	4
Aggy.	4	4
Aeni.	4	4
Arel.	4	4
Agga.	4	4
Garysta.	7	7
Grissia.	7	7
Gwender.	7	7
Gradina.	7	7
Gelcina.	7	7
Emen.	4	4
Eley.	4	4
Elui.	4	4
Essa.	4	4
Elor.	4	4
Kagaly.	6	6
Kishly.	6	6
Klenna.	6	6
Kissya.	6	6
Kolley.	6	6
Veonris.	7	7
Vanella.	7	7
Valirda.	7	7
Villiss.	7	7
Valonne.	7	7
Pera.	4	4
Pigi.	4	4
Pesh.	4	4
Pabe.	4	4
Paud.	4	4
Cagree.	6	6
Ceella.	6	6
Clisty.	6	6
Channe.	6	6
Carlyn.	6	6
Kertze.	6	6
Korina.	6	6
Kertol.	6	6
Kechbe.	6	6
Kryita.	6	6
Berlia.	6	6
Bednye.	6	6
Baulya.	6	6
Bamlie.	6	6
Brynna.	6	6
Luell.	5	5
Lisse.	5	5
Lancy.	5	5
Laniy.	5	5
Larie.	5	5
Rune.	4	4
Ruti.	4	4
Revi.	4	4
Rusa.	4	4
Runi.	4	4
N.	1	5
Nille.	5	5
Nainh.	5	5
Niena.	5	5
Naney.	5	5
Ida.	3	3
Iry.	3	3
Ilo.	3	3
Iin.	3	3
Iki.	3	3
Tdriny.	6	6
Tittie.	6	6
Tyvien.	6	6
Tiebra.	6	6
Tessie.	6	6
Mennett.	7	7
Meonira.	7	7
Meciell.	7	7
Marline.	7	7
Martiee.	7	7
Vynlen.	6	6
Vigrit.	6	6
Veriel.	6	6
Vrinte.	6	6
Veobra.	6	6
Feliag.	6	6
Frinne.	6	6
Framet.	6	6
Fauria.	6	6
Fephyr.	6	6
Gosa.	4	4
Grin.	4	4
Gery.	4	4
GCil.	4	4
Greb.	4	4
Sisva.	5	5
Syann.	5	5
Sypho.	5	5
Stafi.	5	5
Sybay.	5	5
Itristice.	9	9
Irdettina.	9	9
Imevettis.	9	9
Inichoric.	9	9
Inangadannn.	11	9
Saerlie.	7	7
Sheledo.	7	7
Shaleet.	7	7
Shphria.	7	7
Shaleil.	7	7
Merina.	6	6
Marrio.	6	6
Merole.	6	6
Meliny.	6	6
Mannia.	6	6
Stana.	5	5
Share.	5	5
Sanna.	5	5
Sheth.	5	5
Sanna.	5	5
Berbie.	6	6
Brisia.	6	6
Banenn.	6	6
Bruvie.	6	6
Btella.	6	6
Anesia.	6	6
Arsinn.	6	6
Arsell.	6	6
Andahh.	6	6
Aissie.	6	6
Dery.	4	4
Darl.	4	4
Dend.	4	4
Dona.	4	4
Doni.	4	4
Chastelina.	10	10
Chrriedaryne.	12	10
Chrisdeelena.	12	10
Chramesttin.	11	10
Cineronye.	9	10
Cherlia.	7	7
Chrosda.	7	7
Cafdien.	7	7
Chertea.	7	7
Conella.	7	7
BarDahla.	8	3
Bag.	3	3
Beo.	3	3
Bib.	3	3
Bep.	3	3
Pia.	3	3
Pea.	3	3
Pat.	3	3
Pem.	3	3
Pie.	3	3
Hanstia.	7	7
Heriasa.	7	7
Hoollis.	7	7
Henetie.	7	7
HebielP.	7	7
Angelie.	7	8
Artanda.	7	8
Angatia.	7	8
Aggatee.	7	8
Argiens.	7	8
Ellane.	6	6
Elvila.	6	6
Eronea.	6	6
Esefla.	6	6
Elllia.	6	6
Eaneth.	6	7
Escirta.	7	7
Estani.	6	7
Evargyaka.	9	7
Evarina.	7	7
Evlen.	5	5
Engee.	5	5
Eviel.	5	5
Epibi.	5	5
EfUmaty.	7	5
Jenil.	5	5
J.	1	5
Jieth.	5	5
Jeaci.	5	5
Jelil.	5	5
Gesy.	4	4
GLia.	4	4
Gado.	4	4
Gian.	4	4
Gese.	4	4
Tasia.	5	5
T.	1	5
Tiffa.	5	5
Thaan.	5	5
Tesci.	5	5
Ketherl.	7	7
Kalicia.	7	7
Karella.	7	7
Kareria.	7	7
Krittey.	7	7
Lusis.	5	5
Lurin.	5	5
Lusin.	5	5
Lxxua.	5	5
Lisai.	5	5
Vertta.	6	6
Vishie.	6	6
Verina.	6	6
Veonie.	6	6
Vegell.	6	6
Cagdie.	6	6
Cellen.	6	6
Cretta.	6	6
Crisis.	6	6
Camole.	6	6
Messie.	6	6
Mernur.	6	6
Marrie.	6	6
Magele.	6	6
Marlie.	6	6
Jelcah.	6	6
Jatbil.	6	6
JHelyn.	6	6
Jamila.	6	6
Jellie.	6	6
Versie.	6	6
Vellyx.	6	6
Vinota.	6	6
Verthe.	6	6
Villon.	6	6
Sybel.	5	5
Servi.	5	5
Satie.	5	5
Sasie.	5	5
Sanna.	5	5
Emea.	4	4
Erse.	4	4
Elle.	4	4
Emme.	4	4
Elew.	4	4
SGpha.	5	5
Shore.	5	5
Sandy.	5	5
Sybin.	5	5
Suann.	5	5
KellasP.	7	7
Kandila.	7	7
Karonis.	7	7
Konella.	7	7
Karliel.	7	7
Shelies.	7	7
Shelone.	7	7
Sepella.	7	7
Sherrie.	7	7
Shalean.	7	7
Chcissyl.	8	8
Ctahrine.	8	8
Choplalyn.	9	8
Celoettt.	8	8
Coracine.	8	8
Jane.	4	4
Juli.	4	4
Jenn.	4	4
Jani.	4	4
Juvy.	4	4
Shevonna.	8	8
Shurmine.	8	8
Stachella.	9	8
Shurrine.	8	8
Shellei.	7	8
Ja.	2	5
JoAna.	5	5
Jutti.	5	5
Jista.	5	5
Jigha.	5	5
Chaogaka.	8	8
Comevary.	8	8
Cemtizia.	8	8
Cheriela.	8	8
Chesteni.	8	8
Quilcid.	7	7
QKellee.	7	7
Qiannia.	7	7
Queliny.	7	7
QKallyn.	7	7
R.	1	6
Romela.	6	6
ROlore.	6	6
Rinefa.	6	6
Racine.	6	6
Kailej.	6	6
Kanipa.	6	6
Kissie.	6	6
Kalvie.	6	6
Kortyo.	6	6
Beth.	4	4
Bofe.	4	4
Blet.	4	4
Beri.	4	4
Biff.	4	4
Corena.	6	6
Cadeny.	6	6
Camana.	6	6
Chelra.	6	6
Chonda.	6	6
Neena.	5	5
Nenna.	5	5
Nenne.	5	5
Nauna.	5	5
Niana.	5	5
Shelora.	7	7
Sanandy.	7	7
Sietiti.	7	7
Sephuen.	7	7
Suanera.	7	7
Daella.	6	6
Dannel.	6	6
Daella.	6	6
Damiel.	6	6
Dinvie.	6	6
GGsthella.	9	8
Guevella.	8	8
GVillisy.	8	8
Gilibie.	7	8
Gnettell.	8	8
Fannhe.	6	6
Ftathe.	6	6
Fillie.	6	6
Floryl.	6	6
Fislia.	6	6
Thesell.	7	7
Tamerle.	7	7
Thelisa.	7	7
Tholita.	7	7
Tiefmia.	7	7
Elivy.	5	5
Eille.	5	5
Elenn.	5	5
Ellie.	5	5
Eisha.	5	5
Bephellyn.	9	9
Bitryelma.	9	9
Byarefia.	8	9
Bereeliza.	9	9
Bimoritia.	9	9
Kanshira.	8	8
Katagika.	8	8
Karillan.	8	8
Krintonn.	8	8
Killlika.	8	8
GHanaile.	8	8
GFllinka.	8	8
Geriahin.	8	8
Geroenna.	8	8
GHeneend.	8	8
Krorea.	6	6
Kalina.	6	6
Karlel.	6	6
Kersie.	6	6
Kverie.	6	6
Ruda.	4	4
Reny.	4	4
Ruci.	4	4
Rune.	4	4
Reci.	4	4
Apeliis.	7	7
Annelia.	7	7
Allialia.	8	7
Andorle.	7	7
Acalissa.	8	7
Megreelle.	9	9
Marnerithe.	10	9
Milealmre.	9	9
Margienirsa.	11	9
Merylaria.	9	9
Charlina.	8	8
Catillin.	8	8
Chennann.	8	8
Carysify.	8	8
Clancian.	8	8
Aplis.	5	5
Ailla.	5	5
A.	1	5
AMell.	5	5
Artis.	5	5
Sitti.	5	5
Seena.	5	5
Sybel.	5	5
Suria.	5	5
Sybel.	5	5
Bibly.	5	5
Bysha.	5	5
Bymra.	5	5
Baryl.	5	5
Belsy.	5	5
Hysnia.	6	6
Helena.	6	6
Horima.	6	6
Hertra.	6	6
Hillah.	6	6
Sysella.	7	7
Shalisa.	7	7
Sharier.	7	7
Shellia.	7	7
Sherrie.	7	7
Maglan.	6	6
Merlee.	6	6
Mighar.	6	6
Mynacd.	6	6
Meghe.	5	6
Pimrotce.	8	8
Phellathe.	9	8
Pipplina.	8	8
Parlytte.	8	8
Phanance.	8	8
Sanryais.	8	8
SamestiEce.	10	8
Stoilita.	8	8
Sacharia.	8	8
Saseisse.	8	8
ERhelia.	7	7
Eveleth.	7	7
Elaelly.	7	7
Edoleh.	6	7
Evarila.	7	7
Krorly.	6	6
Klyloe.	6	6
Kallia.	6	6
Kathra.	6	6
Kancie.	6	6
Mar.	3	8
Mirtteanne.	10	8
Mathella.	8	8
Mar.	3	8
Mar.	3	8
Lenetta.	7	7
Leralon.	7	7
Loliste.	7	7
Lenalia.	7	7
Larilel.	7	7
Cdarledda.	9	9
Cethalicia.	10	9
Ccherrahis.	10	9
Creegella.	9	9
Cerrielia.	9	9
Tyssi.	5	5
Tanie.	5	5
Tella.	5	5
Teshi.	5	5
Telia.	5	5
Ollian.	6	6
Onilal.	6	6
Oentra.	6	6
Olzela.	6	6
Ondeth.	6	6
Kavy.	4	4
Kery.	4	4
Kata.	4	4
Kiss.	4	4
Kaca.	4	4
Baello.	6	6
Brista.	6	6
Bangee.	6	6
Brista.	6	6
Bilily.	6	6
Cracy.	5	5
Clacy.	5	5
Cally.	5	5
Clory.	5	5
Cyeve.	5	5
Jeshy.	5	5
Jonel.	5	5
Jeena.	5	5
Jeela.	5	5
J.	1	5
Dedieh.	6	6
Deslie.	6	6
Dannis.	6	6
Destyd.	6	6
Deelee.	6	6
Wysil.	5	5
Wisha.	5	5
Wevve.	5	5
Wamil.	5	5
Wyril.	5	5
Shelle.	6	6
Sherre.	6	6
Sialia.	6	6
Shanda.	6	6
Suilla.	6	6
Geldy.	5	5
Gwlamy.	6	5
Getha.	5	5
Gutti.	5	5
Gissi.	5	5
Cerierin.	8	8
Caliella.	8	8
Charinde.	8	8
Carcelia.	8	8
Chellina.	8	8
Cremina.	7	7
Christy.	7	7
Carlika.	7	7
Cherisy.	7	7
Ceberta.	7	7
Jistis.	6	6
Jorell.	6	6
Jistne.	6	6
Jianne.	6	6
Jotirl.	6	6
Cariseth.	8	8
Charsard.	8	8
Carnitta.	8	8
Charleta.	8	8
Chandina.	8	8
Ranila.	6	6
Rynina.	6	6
Refryn.	6	6
Runier.	6	6
Rendie.	6	6
Felline.	7	7
Faldoll.	7	7
Fabrisy.	7	7
Flartay.	7	7
Faliane.	7	7
Unella.	6	6
Ularee.	6	6
Ulemie.	6	6
Ulista.	6	6
Ulennya.	7	6
Lainot.	6	6
Lendie.	6	6
Lersie.	6	6
Linvil.	6	6
Luuile.	6	6
Phittann.	8	8
Phellinc.	8	8
PqtiBipha.	9	8
Pyebyela.	8	8
Phfrilce.	8	8
Jorolee.	7	7
Jenshuy.	7	7
Jenhary.	7	7
Jeannet.	7	7
Joverra.	7	7
Martyah.	7	7
Marneli.	7	7
Meetaly.	7	7
Mettice.	7	7
Maciend.	7	7
Piellid.	7	7
Pelliss.	7	7
Patimia.	7	7
Pylilve.	7	7
Parleen.	7	7
RGrlilce.	8	8
Rhanhahse.	9	8
Rosomibea.	9	8
Refrisca.	8	8
Relyssa.	7	8
HeCl.	4	4
Habe.	4	4
Heni.	4	4
Hegi.	4	4
Hany.	4	4
Avenore.	7	7
Aneliel.	7	7
Avonnia.	7	7
Amliine.	7	7
AAmessa.	7	7
Mannelva.	8	8
Mar.	3	8
Mre.	3	8
Mal.	3	8
Mar.	3	8
Lemin.	5	5
Lexey.	5	5
Lagly.	5	5
Lobri.	5	5
Lisly.	5	5
9.138636752356977 9 4
